"title"	"description"	"rating"	"url"	"package"	"icon"
"Accessibility Scanner"	"Scan accessibility quickly"	"4.5"	"https://play.google.com/store/apps/details?id=com.google.android.apps.accessibility.auditor"	"com.google.android.apps.accessibility.auditor"	"https://lh3.googleusercontent.com/HstUa1VemLGLop_1ad8aAviAqEBPynQVqaZAff_0ZiKiAfmPw0DlB7_PWz8X90Kd38w=w340"
"AdWords"	"Performance, alerts, suggestions. On the go."	"4.2"	"https://play.google.com/store/apps/details?id=com.google.android.apps.adwords"	"com.google.android.apps.adwords"	"https://lh5.ggpht.com/NLa8tqV0tu4pkFUbaXE5DXsRt65zQbs0s_8nzrLjGwctPuzMPNkjSRl2dD-w7A8hzeE=w340"
"Android Device Enrollment"	"Activate tablets with Google Play for Education in minutes."	"3.9"	"https://play.google.com/store/apps/details?id=com.google.android.apps.edu.nfcprogrammer"	"com.google.android.apps.edu.nfcprogrammer"	"https://lh6.ggpht.com/nRcA1hnip2Ss7IwqLzWHnuXB8rngDi9Dj_NMRqJ2dbT4aVmfhuLM5zPImoHkxyTTTj0=w340"
"Android Device Manager"	"Find and secure lost Android devices"	"4.3"	"https://play.google.com/store/apps/details?id=com.google.android.apps.adm"	"com.google.android.apps.adm"	"https://lh6.ggpht.com/9OmDcNiV0d1Zk9wxuMv7qL4tR-CU2xk_klM0S_gJsC_nRXzLiXQz0RbYp-iCt6qSV9o=w340"
"Android Management Experience"	"Try out Android features in enterprise"	"4.4"	"https://play.google.com/store/apps/details?id=com.google.android.apps.work.testdrive"	"com.google.android.apps.work.testdrive"	"https://lh3.googleusercontent.com/pE9JzueDVNAIbufMcjemyuRX7pSv_CH_DD61ZiJuKM910kMSnIKgKxrxyaF7NCChpdI=w340"
"Android System WebView"	"Web content for apps, powered by Chrome"	"4.3"	"https://play.google.com/store/apps/details?id=com.google.android.webview"	"com.google.android.webview"	"https://lh3.ggpht.com/wFQnMKpl6M1JGhG2nfGY5WGiZqWBkKTsGkFLngwQxjKbEBN6bpAh3ljUu3KQVozH0sI=w340"
"Android TV Launcher"	"Android TV Launcher"	"2.9"	"https://play.google.com/store/apps/details?id=com.google.android.leanbacklauncher"	"com.google.android.leanbacklauncher"	"https://lh3.ggpht.com/awItARXnEpTdEoCP7o3aDtMkzRSC5MeLjFHYt5LiUnvtdG0c94f7_2qDeSVEeB_syA=w340"
"Android TV Remote Control"	"Android TV Remote"	"3.2"	"https://play.google.com/store/apps/details?id=com.google.android.tv.remote"	"com.google.android.tv.remote"	"https://lh6.ggpht.com/YlZDo5FbktRrY_tLlEBL9wnj1DYY-kAlPon6ty1HN88QMBPDf4ySRAvNIyelVD0Wzuzi=w340"
"Android Wear - Smartwatch"	"Android Wear - Smartwatch"	"3.7"	"https://play.google.com/store/apps/details?id=com.google.android.wearable.app"	"com.google.android.wearable.app"	"https://lh3.googleusercontent.com/b9A4Jrdrt85T8sQBpjUqJLVkj3pWyN7Si22H0rEYE0DDjmVyB3AVce1DMHBnWjLi4hQ=w340"
"Androidify"	"Androidify yourself!"	"4.2"	"https://play.google.com/store/apps/details?id=com.google.android.apps.androidify"	"com.google.android.apps.androidify"	"https://lh3.ggpht.com/jElCXc3jRhOrtLUXyturUB_230v9RTZ9KGTl8L1szgy6lY8eoGSeA8Vi3v5cVSw16l4=w340"
"Backdrop Daydream"	"Backdrop daydream"	"2.9"	"https://play.google.com/store/apps/details?id=com.google.android.backdrop"	"com.google.android.backdrop"	"https://lh3.googleusercontent.com/5vDnNvm80Wc8OjhaTTMH8P-fdiXGpDqfTIlMUBGwkql3YRvPxH3Xz8uDEISvDTyUFw=w340"
"Beacon Tools"	"Manage your beacons with Googles Beacon Registry."	"4.3"	"https://play.google.com/store/apps/details?id=com.google.android.apps.location.beacon.beacontools"	"com.google.android.apps.location.beacon.beacontools"	"https://lh3.googleusercontent.com/VyXNhGciXffHl6FgUxV0fVvFB9MjvxqMHoDI02SmHDT4Mr-wU9OnF4YwiuTvMMZN01w=w340"
"Blogger"	"Blogging on the go."	"3.8"	"https://play.google.com/store/apps/details?id=com.google.android.apps.blogger"	"com.google.android.apps.blogger"	"https://lh4.ggpht.com/Av1ChCz8qIHLTtuMVI2b2u5M-wYmD5jExohP3fvh4X11vkMvTobt--6gb0gNHl46alE=w340"
"Calculator"	"A simple calculator utility for Android and Android Wear"	"4.4"	"https://play.google.com/store/apps/details?id=com.google.android.calculator"	"com.google.android.calculator"	"https://lh3.googleusercontent.com/P02Hpk593fQ1I6thaTvhz2Yn62ZKNPeD4GeoP6umB6Y65SFf7a6qnMzv3Qy_IfgKtcY=w340"
"Car Home"	"Quickly access navigation, voice actions, and other features while driving."	"4"	"https://play.google.com/store/apps/details?id=com.google.android.carhome"	"com.google.android.carhome"	"https:https://lh6.ggpht.com/U-65lQ8FKhq4kJIVy2yDzGf21Gk5UUdysBOR2iMF-l7i8Fdi36vgXYfhXFwUiCyao_U=w340"
"Cardboard"	"Experience virtual reality on your smartphone with Cardboard."	"4.2"	"https://play.google.com/store/apps/details?id=com.google.samples.apps.cardboarddemo"	"com.google.samples.apps.cardboarddemo"	"https://lh3.googleusercontent.com/OF-_SP5tzFPxK7NBoX7Y-Wsz32Woy_JliL4kZSTdkNz-PyAiHV1znVwjkQgn5vGahA=w340"
"Cardboard Camera"	"Take photos you can experience in virtual reality—all on your smartphone."	"4.3"	"https://play.google.com/store/apps/details?id=com.google.vr.cyclops"	"com.google.vr.cyclops"	"https://lh3.googleusercontent.com/woa2YK8TbntUguIc88SStbMnRqIp4aapWiRW_tEBSjRCvPmlFKQOiqf7G43PaUK1ry4R=w340"
"Cardboard Design Lab"	"Design Principles for Virtual Reality"	"3.8"	"https://play.google.com/store/apps/details?id=com.google.vr.cardboard.apps.designlab"	"com.google.vr.cardboard.apps.designlab"	"https://lh3.googleusercontent.com/vQsijbqA_s23-qu0vd-4Rlw7MHQAF0Gbrtve3VtHT4ztFmkDGXHM2eb1GRC3z0WY-hY=w340"
"Chrome Beta"	"The speed and simplicity of Chrome, now on your Android device in beta."	"4.3"	"https://play.google.com/store/apps/details?id=com.chrome.beta"	"com.chrome.beta"	"https://lh3.googleusercontent.com/dutQTEHp8_NXEFXPCH-PsKpb4ExDhIjJOtZzUJAKkQqom2xF66Dz6HQqQy2nnNiaYQ=w340"
"Chrome Browser - Google"	"The speed and simplicity of Chrome, now on your Android phone and tablet."	"4.2"	"https://play.google.com/store/apps/details?id=com.android.chrome"	"com.android.chrome"	"https://lh3.googleusercontent.com/nYhPnY2I-e9rpqnid9u9aAODz4C04OycEGxqHG5vxFnA35OGmLMrrUmhM9eaHKJ7liB-=w340"
"Chrome Canary (Unstable)"	"Warning: experimental. Tap Read More for details."	"4.4"	"https://play.google.com/store/apps/details?id=com.chrome.canary"	"com.chrome.canary"	"https://lh3.googleusercontent.com/KFO2VzARMBZdcjV13ZX2ekdZIblHB2Ub-NPCsmpC2WV4FQDTGj0axGvmM6bZiz3CLcRd=w340"
"Chrome Dev"	"The speed and simplicity of Chrome, before everyone else."	"4.3"	"https://play.google.com/store/apps/details?id=com.chrome.dev"	"com.chrome.dev"	"https://lh3.googleusercontent.com/bsCWJ6AGNGJfBjvyFc47nKW4GHnr3NpvmI-kC1vlNwLH7i40cZHoNwX3oo2fjxMMjhU=w340"
"Chrome Remote Desktop"	"Securely access your computers from your Android device."	"4.3"	"https://play.google.com/store/apps/details?id=com.google.chromeremotedesktop"	"com.google.chromeremotedesktop"	"https://lh3.googleusercontent.com/I4DRWoABrUQsaAIQFVSKha98q1u2ilEdrwPJBaf9Mb8KdGZnXzs5DObrwcwUZovgOA=w340"
"Clock"	"Your simple and beautiful alarm clock for Android"	"4.2"	"https://play.google.com/store/apps/details?id=com.google.android.deskclock"	"com.google.android.deskclock"	"https://lh3.googleusercontent.com/7yuNfD5OL0SKm41JZqpXfHLpkIhFG0EzPXLbIr_pL7pYdPaH8trvfH3TCKKL6d4d630=w340"
"Cloud Console"	"Manage your Google Cloud Platform solution."	"4.4"	"https://play.google.com/store/apps/details?id=com.google.android.apps.cloudconsole"	"com.google.android.apps.cloudconsole"	"https://lh3.googleusercontent.com/3Zj7wWKri9Wodet8r_wMM3VO0iumF483k1PH2FoLfJI89wmaWyhYr_sD6TDgft4I4L0=w340"
"Cloud Print"	"Print anywhere from any Android tablet or smartphone."	"4"	"https://play.google.com/store/apps/details?id=com.google.android.apps.cloudprint"	"com.google.android.apps.cloudprint"	"https://lh4.ggpht.com/IOAolyiGssaiu7zU7RDqoamzRzsugMaCGCDj8RteqmU3MCvp1Bel_rZVCWc0uxY3lRsP=w340"
"Contacts"	"Contacts -- helping you stay in touch"	"4.1"	"https://play.google.com/store/apps/details?id=com.google.android.contacts"	"com.google.android.contacts"	"https://lh3.googleusercontent.com/H9yAIsZYqbIOh_E1ON90chVhO6SYSD6ucV-XirZXkMFDqLRjGoztobaxx1XS9CB4lfg=w340"
"Creative Preview"	"Previews creatives in mobile SDKs."	"4"	"https://play.google.com/store/apps/details?id=com.google.android.apps.audition"	"com.google.android.apps.audition"	"https://lh3.googleusercontent.com/Pmtk0ExFZOzSA8zaolSlvYxN5D4Eg7MBYzRBsN8j_bqJjNJLPKf8kgH40rQFSKYHM-5S=w340"
"Crowdsource"	"Crowdsource"	"4.2"	"https://play.google.com/store/apps/details?id=com.google.android.apps.village.boond"	"com.google.android.apps.village.boond"	"https://lh3.googleusercontent.com/Jt2EOxA7s1QzFPt-VuL7L7ckz9WgJmps8HB4BOinnPV1lBqFLVwadrx_IcGP-_ZdCCCc=w340"
"Daydream"	"Experience high quality VR with your Daydream-ready phone."	"3.9"	"https://play.google.com/store/apps/details?id=com.google.android.vr.home"	"com.google.android.vr.home"	"https://lh3.googleusercontent.com/jmjFyy5UIa5cXSbK2BZunF8VLMsUyM0tHCIkc6qanfYP6WsBgm0pep-6z9U_0PpCudFI=w340"
"Daydream Keyboard"	"Daydream Keyboard is an on-screen virtual reality keyboard for Daydream apps."	"4.6"	"https://play.google.com/store/apps/details?id=com.google.android.vr.inputmethod"	"com.google.android.vr.inputmethod"	"https://lh3.googleusercontent.com/CtuXFD8EWTpuCJUY90bT830uUTbwYctJrQipLE29tsr23Y5U7H6c6ddeFBhBN51UQg=w340"
"Delhi Public Transport Offline"	"Delhi Metro and DTC Bus directions and timetables offline without Internet"	"4.4"	"https://play.google.com/store/apps/details?id=com.google.android.apps.geo.briim.gnobu"	"com.google.android.apps.geo.briim.gnobu"	"https://lh3.googleusercontent.com/bo8nNF6KfUM3GPN1PAw0Lv5_DeBCGgx_XeAflquBDG6a8WNe85dTM7M0bin1tePEp0q-=w340"
"DoubleClick for Publishers"	"DFP performance, queries, filters, and more."	"3.7"	"https://play.google.com/store/apps/details?id=com.google.android.drx"	"com.google.android.drx"	"https://lh3.googleusercontent.com/8kQTnsrkJGXbGBQPFJovtn6NiJSVjvGYzG4sRUsKcyYFeafyKU-i3XFT_QhkzoaBrSI=w340"
"Expeditions"	"Field trips to virtually anywhere."	"4.3"	"https://play.google.com/store/apps/details?id=com.google.vr.expeditions"	"com.google.vr.expeditions"	"https://lh3.googleusercontent.com/7J4jAmS69Lhdc0y_CQ5LX3mWQWbTGB70P8r1YHKiYL9gQhlD0y31RzCzy0VL94WKWm4=w340"
"Gboard - the Google Keyboard"	"Fast, smart, and accurate typing. With Search, GIFs, Emoji and more."	"4.1"	"https://play.google.com/store/apps/details?id=com.google.android.inputmethod.latin"	"com.google.android.inputmethod.latin"	"https://lh3.googleusercontent.com/X64En0aW6jkvDnd5kr16u-YuUsoJ1W2cBzJab3CQ5lObLeQ3T61DpB7AwIoZ7uqgCn4=w340"
"Gmail"	"Email from Google"	"4.3"	"https://play.google.com/store/apps/details?id=com.google.android.gm"	"com.google.android.gm"	"https://lh6.ggpht.com/8-N_qLXgV-eNDQINqTR-Pzu5Y8DuH0Xjz53zoWq_IcBNpcxDL_gK4uS_MvXH00yN6nd4=w340"
"Google"	"The smarter way to search on the go."	"4.4"	"https://play.google.com/store/apps/details?id=com.google.android.googlequicksearchbox"	"com.google.android.googlequicksearchbox"	"https://lh3.googleusercontent.com/DKoidc0T3T1KvYC2stChcX9zwmjKj1pgmg3hXzGBDQXM8RG_7JjgiuS0CLOh8DUa7as=w340"
"Google Admin"	"Manage users, reset passwords, manage group membership and manage devices"	"4.1"	"https://play.google.com/store/apps/details?id=com.google.android.apps.enterprise.cpanel"	"com.google.android.apps.enterprise.cpanel"	"https://lh3.googleusercontent.com/rfHMSlyQw8uMg2h4do6Pj88BR10pO93-rNqXSqnNPbOtM2Qse1dnCh_yZWltp8xL6w=w340"
"Google AdSense"	"Track your earnings, anywhere you go."	"4.3"	"https://play.google.com/store/apps/details?id=com.google.android.apps.ads.publisher"	"com.google.android.apps.ads.publisher"	"https://lh3.googleusercontent.com/P_O1n9-0EjY2hzN0bySupOFnuBIco5mAz8pTnz4woDCVgtsGjMqfALUuljj6DlAJC7XL=w340"
"Google Allo"	"Say hello to Google Allo — a new, smart messaging app."	"4.2"	"https://play.google.com/store/apps/details?id=com.google.android.apps.fireball"	"com.google.android.apps.fireball"	"https://lh3.googleusercontent.com/S8DKhY39f1jpVy1-JV3qpI_ftuJwJnKjNbRhrVRGi-MQjr6i73JQI3-dmkQ93E0Jb4hT=w340"
"Google Analytics"	"The official Google Analytics mobile app: check key metrics & real-time data."	"4.3"	"https://play.google.com/store/apps/details?id=com.google.android.apps.giant"	"com.google.android.apps.giant"	"https://lh3.googleusercontent.com/jHRBv9E8ESGX2agXnyn9jFvBZRaeMahk3jpA5VyTugy2MIJVwvbuQzjAze8hIzIAmQ=w340"
"Google app for Android TV"	"Google app for Android TV"	"3.6"	"https://play.google.com/store/apps/details?id=com.google.android.katniss"	"com.google.android.katniss"	"https://lh3.googleusercontent.com/4cXfm9YG59lys9woio9JM5qR_bOpCrv0dgJ1XmowbzgRpIzDRyNQQ8vB8yXsz3NQJ9Q=w340"
"Google Apps Device Policy"	"Allows G Suite domain admin to set security policies for your Android device"	"3.5"	"https://play.google.com/store/apps/details?id=com.google.android.apps.enterprise.dmagent"	"com.google.android.apps.enterprise.dmagent"	"https://lh3.googleusercontent.com/d6Js0wL6riInBUWbxdN5rJjuu_6uygfs-06-8RVRRhDDKC9D4Hs8ZAevLsguTngc0Vkq=w340"
"Google Arts & Culture"	"Explore stories from around the world"	"4.6"	"https://play.google.com/store/apps/details?id=com.google.android.apps.cultural"	"com.google.android.apps.cultural"	"https://lh3.googleusercontent.com/VzjqfHuZcFItnNxy65DHB3E0jR6_WqdOkaEA8NP4gRqySAZjbNf2nE4qxNfoKJSkBNMa=w340"
"Google Arts & Culture VR"	"Experience masterpieces, up close"	"4.3"	"https://play.google.com/store/apps/details?id=com.google.vr.museums"	"com.google.vr.museums"	"https://lh3.googleusercontent.com/5lfFf-Ovf8RGyp2zbmhvjQz3hm1ZfV4Q80aqKSv8JxEzpi77g67dgXfQwTHm0Gdz6nOX=w340"
"Google Authenticator"	"Enable 2-step verification to protect your account from hijacking."	"4.3"	"https://play.google.com/store/apps/details?id=com.google.android.apps.authenticator2"	"com.google.android.apps.authenticator2"	"https://lh3.googleusercontent.com/HPc5gptPzRw3wFhJE1ZCnTqlvEvuVFBAsV9etfouOhdRbkp-zNtYTzKUmUVPERSZ_lAL=w340"
"Google BrailleBack"	"Use your braille display with your Android device"	"4.2"	"https://play.google.com/store/apps/details?id=com.googlecode.eyesfree.brailleback"	"com.googlecode.eyesfree.brailleback"	"https:https://lh4.ggpht.com/GjSPJKc8gioL0QTnmKoIftnEMxMb5oHu_dQ8Qa5cOCynQvoNTcEjFBRAzcQj7VOzYZQ=w340"
"Google Calendar"	"Get the official Google Calendar app designed to make the most of every day"	"4.1"	"https://play.google.com/store/apps/details?id=com.google.android.calendar"	"com.google.android.calendar"	"https://lh3.ggpht.com/oGR9I1X9No3SfFEXrq655tETtVVzI3jIphhmEVPGPEVuM5gfwh8lOGWHQFf6gjSTvw=w340"
"Google Cantonese Input"	"A NEW experience for typing Cantonese"	"4"	"https://play.google.com/store/apps/details?id=com.google.android.apps.inputmethod.cantonese"	"com.google.android.apps.inputmethod.cantonese"	"https://lh5.ggpht.com/UGdt-BQFcvtUnWIpKHxSbQquWj4ZJIctOxAqodQYfhRhO7LDKYu8prMnUK5YV-0jHQ=w340"
"Google Cast Receiver"	"Google Cast receiver for Android TV platform"	"2"	"https://play.google.com/store/apps/details?id=com.google.android.apps.mediashell"	"com.google.android.apps.mediashell"	"https://lh5.ggpht.com/nNCb9PggP_u_PKWQeRtHmSML5bXs_jtdZzVwmcHkD2Jdoo2caerzJC1xtaPqB7O5Fq01=w340"
"Google Classroom"	"Connect with your classes and do assignments on the go."	"4.1"	"https://play.google.com/store/apps/details?id=com.google.android.apps.classroom"	"com.google.android.apps.classroom"	"https://lh3.googleusercontent.com/jWBBqrENpBVVCcMOekDOhhn-Zv_nAhWTysQK7zvANbyNd4UDodNlqoPpDE_XRCIpazdf=w340"
"Google Docs"	"Create and edit documents on the go."	"4.2"	"https://play.google.com/store/apps/details?id=com.google.android.apps.docs.editors.docs"	"com.google.android.apps.docs.editors.docs"	"https://lh4.ggpht.com/-wROmWQVYTcjs3G6H0lYkBK2nPGYsY75Ik2IXTmOO2Oo0SMgbDtnF0eqz-BRR1hRQg=w340"
"Google Drive"	"Free online storage from Google."	"4.3"	"https://play.google.com/store/apps/details?id=com.google.android.apps.docs"	"com.google.android.apps.docs"	"https://lh6.ggpht.com/k7Z4J1IIXXJnC2NRnFfJNlkn7kZge4Zx-Yv5uqYf4222tx74wXDzW24OvOxlcpw0KcQ=w340"
"Google Duo"	"Meet Google Duo — a simple one-to-one video calling app for everyone."	"4.4"	"https://play.google.com/store/apps/details?id=com.google.android.apps.tachyon"	"com.google.android.apps.tachyon"	"https://lh3.googleusercontent.com/8gaEOU2p30N4Up-KMUl4MQBtnn0F5DyH5bqKKr0QqptnQgPk4lxXaWLJhi8Dcu9i8qE=w340"
"Google Earth"	"Explore the world from the palm of your hand with Google Earth."	"4.3"	"https://play.google.com/store/apps/details?id=com.google.earth"	"com.google.earth"	"https://lh3.googleusercontent.com/RjxBl67S_11VT11lBRsPTJn6MTUfAFgRwy6WL0vrpM1iUlVRYUS_domm__TagUpq8XdR=w340"
"Google Fit - Fitness Tracking"	"Step up your fitness. Stay aware and motivated with Google Fit."	"4"	"https://play.google.com/store/apps/details?id=com.google.android.apps.fitness"	"com.google.android.apps.fitness"	"https://lh4.ggpht.com/2PnWIlqNE5ZHwTpNdRBhViSOVBzRIeR4ezAisGyjrqWPiyRcSkm9RCpRBYg7lLvrMA=w340"
"Google Gesture Search"	"Search your Android phone or tablet by drawing gestures."	"4.2"	"https://play.google.com/store/apps/details?id=com.google.android.apps.gesturesearch"	"com.google.android.apps.gesturesearch"	"https://lh6.ggpht.com/PuSAW1Bi9L9beKjGb8z8XMtyxQIPx2APCAtZBHqQqTxo342yzvwsF-KOf5PltDg_jBw=w340"
"Google Goggles"	"Search by taking a picture"	"4"	"https://play.google.com/store/apps/details?id=com.google.android.apps.unveil"	"com.google.android.apps.unveil"	"https:https://lh3.ggpht.com/zLz03mMY1VWt-TRfFB7Q-MijskexmW97pIv5TLEaA5urirJAJVcfBxpcTaRB1ZZpjw=w340"
"Google Handwriting Input"	"Google Handwriting Input lets you handwrite on your phone or tablet"	"4.3"	"https://play.google.com/store/apps/details?id=com.google.android.apps.handwriting.ime"	"com.google.android.apps.handwriting.ime"	"https://lh3.googleusercontent.com/u3HSCgMVYDFPCGhsq0BtLZL66vjnQloig1H3TMkwPCw1fST58RDKM91xnDZtM6RfNGE=w340"
"Google Home"	"Setup and control your Chromecast, Chromecast Audio, and Google Home devices"	"4.2"	"https://play.google.com/store/apps/details?id=com.google.android.apps.chromecast.app"	"com.google.android.apps.chromecast.app"	"https://lh3.googleusercontent.com/EIX5pscg5l1Quvsz17LKk6W5oCSIxOfukBAUmbGR4Uvs1uKDYvbNr0XYE7hqpI3KHQ=w340"
"Google I/O 2016"	"Your co-pilot to navigate I/O, whether you’re attending in-person or remotely."	"4.3"	"https://play.google.com/store/apps/details?id=com.google.samples.apps.iosched"	"com.google.samples.apps.iosched"	"https://lh3.googleusercontent.com/EhF-MEIXADWULQRdAUGRUcYAmpp0odiBywxH6-mdxvwvxrwVVma1V57Vn28At70buRI=w340"
"Google Indic Keyboard"	"Google Indic Keyboard - A new way to type in your native language on Android"	"4.2"	"https://play.google.com/store/apps/details?id=com.google.android.apps.inputmethod.hindi"	"com.google.android.apps.inputmethod.hindi"	"https://lh3.googleusercontent.com/ZwkvxWr1hIyOsRMhJ3qfFN8NIcOjbDmDykJqX0u-GZ0MQbR0ZEoEUmsouwLhvKYJ-x8=w340"
"Google Japanese Input"	"Google Japanese Input, now available on Android."	"4.1"	"https://play.google.com/store/apps/details?id=com.google.android.inputmethod.japanese"	"com.google.android.inputmethod.japanese"	"https://lh4.ggpht.com/7ys7YX1iWd6tKCdihynk6lPKgWWPITiGfOHGuoD1Uq2Mx94KhrX7d8BHLuETlYiIbQ=w340"
"Google Keep"	"Google Keep"	"4.4"	"https://play.google.com/store/apps/details?id=com.google.android.keep"	"com.google.android.keep"	"https://lh5.ggpht.com/DY9VpGNRSHoICKJVpIy9dMjgm7TOb3lTveLtsv4got8aqbLGpSS4w5xXiR7VBe-mr_M=w340"
"Google Korean Input"	"A NEW experience for typing Korean"	"3.4"	"https://play.google.com/store/apps/details?id=com.google.android.inputmethod.korean"	"com.google.android.inputmethod.korean"	"https://lh6.ggpht.com/bcDEooi1AUQRCIUuewKlY-Yg98rV3BDXBJJdfku2oUuxPXWnTyQqqU3DJ11Y3UzPMg=w340"
"Google My Business"	"Join millions and manage your business on Google"	"4.3"	"https://play.google.com/store/apps/details?id=com.google.android.apps.vega"	"com.google.android.apps.vega"	"https://lh3.googleusercontent.com/EUQGH40jV55Dm2mcGzT9I2_vSfl_rJv88dfrR3JGJkxgQMe2j4bXoFd-tvuYLSGhFIQ=w340"
"Google My Maps"	"Create and edit custom maps on the go."	"3.9"	"https://play.google.com/store/apps/details?id=com.google.android.apps.m4b"	"com.google.android.apps.m4b"	"https://lh3.googleusercontent.com/8Wxdne_aPqu3IcG8KEEQNFscPt_Lq3ufW-t03Gc5JvYDCzeETnChlMLtzyPI5GoxWg=w340"
"Google News & Weather"	"Your customisable real-time news desk"	"4.1"	"https://play.google.com/store/apps/details?id=com.google.android.apps.genie.geniewidget"	"com.google.android.apps.genie.geniewidget"	"https://lh3.googleusercontent.com/fnqDFUD0zN_T1rR-4fyiCGsn6-MVE3azzA6fgMZN5xmsNIvpNQ7NbG0sXNGovftaQhb6=w340"
"Google Now Launcher"	"Bring the best of Google to your Home screen."	"4.3"	"https://play.google.com/store/apps/details?id=com.google.android.launcher"	"com.google.android.launcher"	"https://lh3.googleusercontent.com/7clxDYpmA-L1XXJP7wcRZMWV71MwDtZhubp1cF8Ss4cVjHFsqisncNP5vavacmMPhds=w340"
"Google PDF Viewer"	"PDF Viewing for Android"	"4.2"	"https://play.google.com/store/apps/details?id=com.google.android.apps.pdfviewer"	"com.google.android.apps.pdfviewer"	"https://lh4.ggpht.com/u9ofV9e2diX3giScuXT46B4A0vxFw8tj5NzHQJVAqAKwL5b_o8CHnO-qiZZIZYHlTg=w340"
"Google Photos"	"A smarter gallery by Google, with free unlimited photo and video storage."	"4.4"	"https://play.google.com/store/apps/details?id=com.google.android.apps.photos"	"com.google.android.apps.photos"	"https://lh5.ggpht.com/tq3WqEUxtRyBn-d_0t3j6WKNHuJDrmLq-FE3GAYrsAMQFIaS7FIgRLfzzql2SvfvLqto=w340"
"Google Pinyin Input"	"Google Pinyin Input - input Chinese using pinyin, handwriting, etc."	"4"	"https://play.google.com/store/apps/details?id=com.google.android.inputmethod.pinyin"	"com.google.android.inputmethod.pinyin"	"https://lh6.ggpht.com/xhtkIKPa1rn2nox9FGQIxAdv9MlyZUxjlqCpoS7ik4G-l00QKRPRutEdQXrG9Qt6C3E=w340"
"Google Play Books"	"Read your favorite books and authors on the go today."	"3.9"	"https://play.google.com/store/apps/details?id=com.google.android.apps.books"	"com.google.android.apps.books"	"https://lh3.googleusercontent.com/DglqS-eYHQYXnj8M8tmzh3JcKDXcidSo3IzgyCZzci8ZTV9Pmuk8vvIFh9XHOztC3Q=w340"
"Google Play Developer Console"	"Understand your apps statistics, get notified of changes and reply to reviews."	"4.5"	"https://play.google.com/store/apps/details?id=com.google.android.apps.playconsole"	"com.google.android.apps.playconsole"	"https://lh3.googleusercontent.com/9WW-ovgK4v2va7xkI0Fu8ypaRGBCBboebwKMucGXvboZa1u9KIQkuCKPBzG80t6aIXo=w340"
"Google Play Games"	"Discover great games, and earn achievements and high scores."	"4.1"	"https://play.google.com/store/apps/details?id=com.google.android.play.games"	"com.google.android.play.games"	"https://lh3.googleusercontent.com/UFJL7ni5i_F8V9Em0yymU4_x8uWhpKqDiA13Zo3ybgPJa48ujJjNfHLbvKr-3_MXzjLa=w340"
"Google Play Movies & TV"	"Watch movies and TV shows purchased on Google Play."	"3.6"	"https://play.google.com/store/apps/details?id=com.google.android.videos"	"com.google.android.videos"	"https://lh3.googleusercontent.com/EamensCSpActl8Y0uOxXOUSVHUBJOc4N3Lsp0OU0oMNBa9GU2JVmp1HWU9fyTWvMQQ=w340"
"Google Play Music"	"Discover and play millions of songs with the Google Play Music app"	"3.9"	"https://play.google.com/store/apps/details?id=com.google.android.music"	"com.google.android.music"	"https://lh3.googleusercontent.com/gdBHEk-u3YRDtuCU3iDTQ52nZd1t4GPmldYaT26Jh6EhXgp1mlhQiuLFl4eXDAXzDig5=w340"
"Google Play Newsstand"	"News & Magazines for you."	"3.9"	"https://play.google.com/store/apps/details?id=com.google.android.apps.magazines"	"com.google.android.apps.magazines"	"https://lh3.googleusercontent.com/76AS8vaLwxcJMD5Yd8xW5Dy8AW8lloWa2AkP2cgUdCY6rlzeqcjIvrcxOvq3nNwxmofL=w340"
"Google Santa Tracker"	"Countdown to Santas big night with the Santa Tracker app for Android."	"4.2"	"https://play.google.com/store/apps/details?id=com.google.android.apps.santatracker"	"com.google.android.apps.santatracker"	"https://lh3.ggpht.com/hG8czln9SPL68rQeMj5q8LYoQJx-OLITaunMSot4R2d0QugmPyT8a2gUQ4rMF3awnHJm=w340"
"Google Sheets"	"Create and edit spreadsheets on the go."	"4.2"	"https://play.google.com/store/apps/details?id=com.google.android.apps.docs.editors.sheets"	"com.google.android.apps.docs.editors.sheets"	"https://lh3.ggpht.com/e3oZddUHSC6EcnxC80rl_6HbY94sM63dn6KrEXJ-C4GIUN-t1XM0uYA_WUwyhbIHmVMH=w340"
"Google Slides"	"Create and edit presentations on the go."	"4.1"	"https://play.google.com/store/apps/details?id=com.google.android.apps.docs.editors.slides"	"com.google.android.apps.docs.editors.slides"	"https://lh3.ggpht.com/9rwhkrvgiLhXVBeKtScn1jlenYk-4k3Wyqt1PsbUr9jhGew0Gt1w9xbwO4oePPd5yOM=w340"
"Google Spotlight Stories"	"Immerse yourself in a world of storytelling made for mobile."	"4.2"	"https://play.google.com/store/apps/details?id=com.google.android.spotlightstories"	"com.google.android.spotlightstories"	"https://lh3.googleusercontent.com/fRRySCOTp4voXvK2DKfHJ6bWF_VTXMVynnli-HZJNVP3HWFnRfRRCWTxcZDbwa-JRy0=w340"
"Google Springboard"	"The fastest and easiest way to find your information at work"	"3.5"	"https://play.google.com/store/apps/details?id=com.google.enterprise.topaz.mobile.android"	"com.google.enterprise.topaz.mobile.android"	"https://lh3.googleusercontent.com/5R_v7G8rKowf8S4ExZytmoO2AgU2VdunGAegKrqO4t4sZ5W6-o4J7EI7CtvkDbcZlXY=w340"
"Google Street View"	"Browse the latest from Google, explore content from others, and create your own"	"4.2"	"https://play.google.com/store/apps/details?id=com.google.android.street"	"com.google.android.street"	"https://lh3.googleusercontent.com/50-i3khy6z44n6xQsiJKx6WqLWK4zeb6IyXJYW2qZJGBE_2QvWSI5an09m-H7WgMlRqQ=w340"
"Google Support Services"	"Enables effortless customer support from Google"	"3.7"	"https://play.google.com/store/apps/details?id=com.google.android.apps.helprtc"	"com.google.android.apps.helprtc"	"https://lh3.googleusercontent.com/BwvZYji-y570-bGv_fGbc7GAsvjbnUQ4Cbz79PhdadDMvk1JvBR1pl39hZCtPwiTQH4=w340"
"Google TalkBack"	"TalkBack provides spoken feedback for eyes-free computing"	"4"	"https://play.google.com/store/apps/details?id=com.google.android.marvin.talkback"	"com.google.android.marvin.talkback"	"https://lh3.googleusercontent.com/r0JaW_cBZRoYqdStT3eP6tEI85Gu4ByXFfD1w9AZUcCcZe5aYE8TLIM36alYdiFs7w=w340"
"Google Text-to-speech"	"Let your device do the talking"	"4.1"	"https://play.google.com/store/apps/details?id=com.google.android.tts"	"com.google.android.tts"	"https://lh3.ggpht.com/yrkQ_bDsgS0eFnJRsqxzPDdRNNHE9-dK1eZYNoN3ryDl9V9foQwZgZaTZwiYUfv2jnGI=w340"
"Google Translate"	"The world is closer than ever with over 100 languages"	"4.4"	"https://play.google.com/store/apps/details?id=com.google.android.apps.translate"	"com.google.android.apps.translate"	"https://lh3.googleusercontent.com/ZrNeuKthBirZN7rrXPN1JmUbaG8ICy3kZSHt-WgSnREsJzo2txzCzjIoChlevMIQEA=w340"
"Google Trips - Travel Planner"	"Like a personalized tour guide in your pocket"	"4.2"	"https://play.google.com/store/apps/details?id=com.google.android.apps.travel.onthego"	"com.google.android.apps.travel.onthego"	"https://lh3.googleusercontent.com/5-zpxQHVo8YfuavTJkqL0U35VPqbt4vddb7OKedrSX8AlyDhBqx6NFFd7WwZDUUf3Ic=w340"
"Google VR Services"	"Google VR Services provides functionality for Daydream and Cardboard apps."	"3.1"	"https://play.google.com/store/apps/details?id=com.google.vr.vrcore"	"com.google.vr.vrcore"	"https://lh3.googleusercontent.com/8OYI7h34ZsWjF06t8h2h4slvdnJfzHm0xBK_yraL2f7J65rL1nRVjwSvJ-R4xbOwnA=w340"
"Google Wifi"	"The companion app for Google Wifi and OnHub."	"4.3"	"https://play.google.com/store/apps/details?id=com.google.android.apps.access.wifi.consumer"	"com.google.android.apps.access.wifi.consumer"	"https://lh3.googleusercontent.com/p5kStIWYqFXMhhVKe6TcEb4qvoXnnUlvhKWZjGNK9_U89d1bzkXHslkVrfcJrSMkeVs=w340"
"Google Zhuyin Input"	"A smart Zhuyin input method"	"4.1"	"https://play.google.com/store/apps/details?id=com.google.android.apps.inputmethod.zhuyin"	"com.google.android.apps.inputmethod.zhuyin"	"https://lh6.ggpht.com/RT-XrPkao3LlfL997YlMj-uzGg49fhV3L-B0E04r2CvZQxTCUZQSoKGiXmjRc2cvNg=w340"
"Google+"	"Discover amazing things from passionate people"	"4.2"	"https://play.google.com/store/apps/details?id=com.google.android.apps.plus"	"com.google.android.apps.plus"	"https://lh3.googleusercontent.com/N-AY2XwXafWq4TQWfua6VyjPVQvTGRdz9CKOHaBl2nu2GVg7zxS886X5giZ9yY2qIjPh=w340"
"Hangouts"	"Hangouts - free messaging, video, and voice"	"3.9"	"https://play.google.com/store/apps/details?id=com.google.android.talk"	"com.google.android.talk"	"https://lh6.ggpht.com/5puZavg4x2pThSTJgos1sARWoARea7tzr_B8AWEwn2lV05RoXo9M8BM2XwcvwG6nIGc=w340"
"Hangouts Dialer - Call Phones"	"Call any number in the world on Hangouts! Most calls to US and Canada are free!"	"4"	"https://play.google.com/store/apps/details?id=com.google.android.apps.hangoutsdialer"	"com.google.android.apps.hangoutsdialer"	"https://lh4.ggpht.com/cJPlYyfWTt0TbPTHebWK5EH96Izod97f0gJRx8TOXYoGG1C4R250fzVGkB6M7x0O_g=w340"
"Inbox by Gmail"	"Already using Gmail? Try out our new email app."	"4.2"	"https://play.google.com/store/apps/details?id=com.google.android.apps.inbox"	"com.google.android.apps.inbox"	"https://lh6.ggpht.com/doFtR_H-dXJH0Mnm0zVchxrv0cWBy3O46_lWVYOnhY1M-cid2Tb7fX1FXPTyxx1BT24=w340"
"Interactive Events"	"See up-to-date agendas and speaker bios"	"3.9"	"https://play.google.com/store/apps/details?id=com.google.android.apps.interactiveevents"	"com.google.android.apps.interactiveevents"	"https://lh3.googleusercontent.com/3KMA5_nRYQFTaxTja-pyejAEIq7cBQef7rqRL-oIs8V6bpvpSGDUp_QqB2Mwz1tFNg=w340"
"Intersection Explorer"	"Intersection Explorer helps blind users explore neighborhoods"	"3.8"	"https://play.google.com/store/apps/details?id=com.google.android.marvin.intersectionexplorer"	"com.google.android.marvin.intersectionexplorer"	"https:https://lh5.ggpht.com/Rhz5UrrjZ9I8SLn1ioqQnC6MmCGxr9m2SvElWKpkgXOyU9HZ-BX_cvqXeW4LuJSV6gA=w340"
"Jump Inspector (Unreleased)"	"View Jump content on your smartphone."	""	"https://play.google.com/store/apps/details?id=com.google.vr.jump.preview"	"com.google.vr.jump.preview"	"https://lh3.googleusercontent.com/oYw9i-FDI1Hc_NOCnq1c1VovnBb8qItMSDjUfi7m8GTlKRvFsc9Ez5-I2XEyiXWVZ4g=w340"
"Live Channels"	"Watch all TV channels without switching your TV input source."	"3.3"	"https://play.google.com/store/apps/details?id=com.google.android.tv"	"com.google.android.tv"	"https://lh4.ggpht.com/eNYOraC9zc8Po9DFe41g1WzF-JSXqigWAM2IUWjeRHaJRb3JQbc34y9IvehplQE2uAAp=w340"
"Maps - Navigation & Transit"	"Real-time GPS navigation, traffic, transit, and details about millions of places"	"4.3"	"https://play.google.com/store/apps/details?id=com.google.android.apps.maps"	"com.google.android.apps.maps"	"https://lh3.googleusercontent.com/MOf9Kxxkj7GvyZlTZOnUzuYv0JAweEhlxJX6gslQvbvlhLK5_bSTK6duxY2xfbBsj43H=w340"
"Measure"	"Measure allows you to measure the world with your Tango device."	"4.5"	"https://play.google.com/store/apps/details?id=com.google.tango.measure"	"com.google.tango.measure"	"https://lh3.googleusercontent.com/XFxOX6e9FX6R7r6fCiztCqtDZnCo3amAClpOdEGeUTqSx_SnxJx9Nx76z6i-JdA0Og=w340"
"Messenger"	"Messenger - the new SMS and MMS app by Google."	"4.2"	"https://play.google.com/store/apps/details?id=com.google.android.apps.messaging"	"com.google.android.apps.messaging"	"https://lh3.googleusercontent.com/uKucj78tM1f6HoLBzoT8FNgH4oVxK5QSLz49ZnpthjAXmjLXGQ2Ge8cn8WGyoRsscg=w340"
"MyGlass"	"MyGlass - Lets you configure and manage your Glass device."	"4.3"	"https://play.google.com/store/apps/details?id=com.google.glass.companion"	"com.google.glass.companion"	"https://lh4.ggpht.com/oY1AOsFVTSmue8lwJfTBanRrWIaFKCWNJ4FstU-rQuArUBGZZAQ5HZbIeaD01yDtlWg=w340"
"Phone"	"A better way to call"	"4.1"	"https://play.google.com/store/apps/details?id=com.google.android.dialer"	"com.google.android.dialer"	"https://lh3.googleusercontent.com/-t3KBUty34ywjdpkEY5a1FUF8-UltPbiq2c3IMcVluHdmiMpqLFBC2gnyYAFIy4oKw=w340"
"PhotoScan by Google Photos"	"Photos from the past, meet scanner from the future."	"4.2"	"https://play.google.com/store/apps/details?id=com.google.android.apps.photos.scanner"	"com.google.android.apps.photos.scanner"	"https://lh3.googleusercontent.com/J57mz_RTCqTNiqbntn7WpnhHeLD7eGc4twaFFhz1XLcSqlKErjwfyioCWWgi2hIRXbA=w340"
"Pixel Launcher"	"The home screen experience for the Pixel and Pixel XL phones by Google."	"4.3"	"https://play.google.com/store/apps/details?id=com.google.android.apps.nexuslauncher"	"com.google.android.apps.nexuslauncher"	"https://lh3.googleusercontent.com/O-7F6uiQOUbCPpfa80BldoKEiNDUekj5NBXYiJvx8fpZxT_Uuw0iAYHIKNa7yUXHbbs=w340"
"Snapseed"	"Professional quality photo edits with the new Snapseed."	"4.4"	"https://play.google.com/store/apps/details?id=com.niksoftware.snapseed"	"com.niksoftware.snapseed"	"https://lh3.googleusercontent.com/mbnvSnzcapR5VR_38p5K6Fkm6tETL3xYt6V7-HRNL7p_FEHciJH5urUDwjzvZvdGpTw=w340"
"Sound Search for Google Play"	"Whats this song?"	"4"	"https://play.google.com/store/apps/details?id=com.google.android.ears"	"com.google.android.ears"	"https://lh3.ggpht.com/f4oX61ljZ6x8aYDELZOgxlvdUEu73-wSQ4fy5bx6fCRISnZP8T353wdaM43RO_DbGg=w340"
"Spaces - Find & Do with Google"	"Small group sharing for everything in life"	"4.3"	"https://play.google.com/store/apps/details?id=com.google.android.apps.social.spaces"	"com.google.android.apps.social.spaces"	"https://lh3.googleusercontent.com/hj6Rnpd083L8jLv1UqnNfrl98KQ1b-XEkH9HetEmAWSV9Hx9rKLrbMyg92tlAtsZYA=w340"
"Street Art watch face"	"Look street smart with these amazing street art watch faces"	"4"	"https://play.google.com/store/apps/details?id=com.google.android.apps.cultural.culturewear"	"com.google.android.apps.cultural.culturewear"	"https://lh3.ggpht.com/iHjBw2HFzscb-HvPDOZhqzxcsdlFQEmFgp87Kp-dPqm9rR2mPkWgKNz46hp9oq8Brg=w340"
"Tango"	"Discover the best Augmented Reality experiences on Tango enabled smartphones."	"4.7"	"https://play.google.com/store/apps/details?id=com.google.tango.discovery"	"com.google.tango.discovery"	"https://lh3.googleusercontent.com/7ABLdGA4It3ZDdR0g2sP_qLpBXefvgDoZv4zXl4XXdS9coZungyZMKzl5NjXbAcFGQ=w340"
"Tango Core"	"Required core services for Tango applications."	"4.4"	"https://play.google.com/store/apps/details?id=com.google.tango"	"com.google.tango"	"https://lh3.googleusercontent.com/oV3qDsuKzeHbs0agoId9M91_s2d-D5FbJQj96N2K6wakoKJb2t-t6b01IQs6epvhCqA=w340"
"Toontastic 3D"	"Lights! Camera! Play!"	"4.4"	"https://play.google.com/store/apps/details?id=com.google.toontastic"	"com.google.toontastic"	"https://lh3.googleusercontent.com/R-dJcIvmUhdrwD7tlR4rQ-k8fWYzfXINb2cleVYH3b0y70qcvHCl55UvuhlA_Jc4CGI=w340"
"Trusted Contacts"	"Stay connected with the people you care about, no matter what happens"	"3.9"	"https://play.google.com/store/apps/details?id=com.google.android.apps.emergencyassist"	"com.google.android.apps.emergencyassist"	"https://lh3.googleusercontent.com/fr6NcjRgxdOHcaMsU9ji-hy3y6bHEkDbggDjRa1BVlJTpfCIvv_ge0sdCCzb9lQZ1A=w340"
"Voice Access (Unreleased)"	"Provides accessibility by voice for hands-free mobile computing."	"5"	"https://play.google.com/store/apps/details?id=com.google.android.apps.accessibility.voiceaccess"	"com.google.android.apps.accessibility.voiceaccess"	"https://lh3.googleusercontent.com/dscgS_GM-sDdzlRIpIdokspqIsw23fSNxul-zmWIAQdcFjkCltHI2mxLGiAKiyGu7hU=w340"
"Wallpapers"	"Make the most of your display with beautiful wallpapers and advanced features."	"4.4"	"https://play.google.com/store/apps/details?id=com.google.android.apps.wallpaper"	"com.google.android.apps.wallpaper"	"https://lh3.googleusercontent.com/2aJfB6trLglywvIh6MSN58qh-r2b-_2GoXk4dWL5fIZmMAWdTN3f98Ugpi6U_glIm0w=w340"
"YouTube"	"Enjoy your favorite videos and channels with the official YouTube app."	"4.2"	"https://play.google.com/store/apps/details?id=com.google.android.youtube"	"com.google.android.youtube"	"https://lh5.ggpht.com/jZ8XCjpCQWWZ5GLhbjRAufsw3JXePHUJVfEvMH3D055ghq0dyiSP3YxfSc_czPhtCLSO=w340"
"YouTube Creator Studio"	"Manage your YouTube channel on the go"	"4.2"	"https://play.google.com/store/apps/details?id=com.google.android.apps.youtube.creator"	"com.google.android.apps.youtube.creator"	"https://lh3.googleusercontent.com/1zX4XFoXUnB8KPpaXTiAGhPLC-Fy34P2077XFeo2P4ApuSZZ9q6eEBptOAEbrqOfbNvp=w340"
"YouTube for Android TV"	"Watch your favorite YouTube videos on your biggest screen."	"2.4"	"https://play.google.com/store/apps/details?id=com.google.android.youtube.tv"	"com.google.android.youtube.tv"	"https://lh6.ggpht.com/h3O-fVvOtwcYWIZtCL37VRHDuhLuJMQy1hn3gPQptfbc4ZCaZ5EQqbBSGu0Nkap2ig=w340"
"YouTube for Google TV"	"YouTube for TV, watch your favorite videos straight from your sofa."	"2.1"	"https://play.google.com/store/apps/details?id=com.google.android.youtube.googletv"	"com.google.android.youtube.googletv"	"https://lh3.ggpht.com/96nxQxbB8Ug-vZjAk-3FSs6JN68iJ3JYQBpmJeA8wt9vnt6wUoxZBj61dWObvTH1DbI_=w340"
"YouTube VR"	"Watch YouTube in Virtual Reality"	"4.5"	"https://play.google.com/store/apps/details?id=com.google.android.apps.youtube.vr"	"com.google.android.apps.youtube.vr"	"https://lh3.googleusercontent.com/mlj6rP-Y551G-Bum0EbPnCC_A2yLOvh1VdAXsIvGvFGx1OGGABIoZE-g7D6ZDM-neoU=w340"