"title"	"description"	"rating"	"url"	"package"	"icon"
"Android Device Manager"	"Find and secure lost Android devices"	"4.3"	"https://play.google.com/store/apps/details?id=com.google.android.apps.adm"	"com.google.android.apps.adm"	"https://lh6.ggpht.com/9OmDcNiV0d1Zk9wxuMv7qL4tR-CU2xk_klM0S_gJsC_nRXzLiXQz0RbYp-iCt6qSV9o=w340"
"Android System WebView"	"Web content for apps, powered by Chrome"	"4.3"	"https://play.google.com/store/apps/details?id=com.google.android.webview"	"com.google.android.webview"	"https://lh3.ggpht.com/wFQnMKpl6M1JGhG2nfGY5WGiZqWBkKTsGkFLngwQxjKbEBN6bpAh3ljUu3KQVozH0sI=w340"
"Android Wear - Smartwatch"	"Android Wear - Smartwatch"	"3.7"	"https://play.google.com/store/apps/details?id=com.google.android.wearable.app"	"com.google.android.wearable.app"	"https://lh3.googleusercontent.com/b9A4Jrdrt85T8sQBpjUqJLVkj3pWyN7Si22H0rEYE0DDjmVyB3AVce1DMHBnWjLi4hQ=w340"
"Beacon Tools"	"Manage your beacons with Googles Beacon Registry."	"4.3"	"https://play.google.com/store/apps/details?id=com.google.android.apps.location.beacon.beacontools"	"com.google.android.apps.location.beacon.beacontools"	"https://lh3.googleusercontent.com/VyXNhGciXffHl6FgUxV0fVvFB9MjvxqMHoDI02SmHDT4Mr-wU9OnF4YwiuTvMMZN01w=w340"
"Cardboard"	"Experience virtual reality on your smartphone with Cardboard."	"4.2"	"https://play.google.com/store/apps/details?id=com.google.samples.apps.cardboarddemo"	"com.google.samples.apps.cardboarddemo"	"https://lh3.googleusercontent.com/OF-_SP5tzFPxK7NBoX7Y-Wsz32Woy_JliL4kZSTdkNz-PyAiHV1znVwjkQgn5vGahA=w340"
"Cardboard Camera"	"Take photos you can experience in virtual reality—all on your smartphone."	"4.3"	"https://play.google.com/store/apps/details?id=com.google.vr.cyclops"	"com.google.vr.cyclops"	"https://lh3.googleusercontent.com/woa2YK8TbntUguIc88SStbMnRqIp4aapWiRW_tEBSjRCvPmlFKQOiqf7G43PaUK1ry4R=w340"
"Chrome Canary (Unstable)"	"Warning: experimental. Tap Read More for details."	"4.4"	"https://play.google.com/store/apps/details?id=com.chrome.canary"	"com.chrome.canary"	"https://lh3.googleusercontent.com/KFO2VzARMBZdcjV13ZX2ekdZIblHB2Ub-NPCsmpC2WV4FQDTGj0axGvmM6bZiz3CLcRd=w340"
"Contacts"	"Contacts -- helping you stay in touch"	"4.1"	"https://play.google.com/store/apps/details?id=com.google.android.contacts"	"com.google.android.contacts"	"https://lh3.googleusercontent.com/H9yAIsZYqbIOh_E1ON90chVhO6SYSD6ucV-XirZXkMFDqLRjGoztobaxx1XS9CB4lfg=w340"
"Creative Preview"	"Previews creatives in mobile SDKs."	"4"	"https://play.google.com/store/apps/details?id=com.google.android.apps.audition"	"com.google.android.apps.audition"	"https://lh3.googleusercontent.com/Pmtk0ExFZOzSA8zaolSlvYxN5D4Eg7MBYzRBsN8j_bqJjNJLPKf8kgH40rQFSKYHM-5S=w340"
"Gmail"	"Email from Google"	"4.3"	"https://play.google.com/store/apps/details?id=com.google.android.gm"	"com.google.android.gm"	"https://lh6.ggpht.com/8-N_qLXgV-eNDQINqTR-Pzu5Y8DuH0Xjz53zoWq_IcBNpcxDL_gK4uS_MvXH00yN6nd4=w340"
"Google Allo"	"Say hello to Google Allo — a new, smart messaging app."	"4.2"	"https://play.google.com/store/apps/details?id=com.google.android.apps.fireball"	"com.google.android.apps.fireball"	"https://lh3.googleusercontent.com/S8DKhY39f1jpVy1-JV3qpI_ftuJwJnKjNbRhrVRGi-MQjr6i73JQI3-dmkQ93E0Jb4hT=w340"
"Google app for Android TV"	"Google app for Android TV"	"3.6"	"https://play.google.com/store/apps/details?id=com.google.android.katniss"	"com.google.android.katniss"	"https://lh3.googleusercontent.com/4cXfm9YG59lys9woio9JM5qR_bOpCrv0dgJ1XmowbzgRpIzDRyNQQ8vB8yXsz3NQJ9Q=w340"
"Google Arts & Culture"	"Explore stories from around the world"	"4.6"	"https://play.google.com/store/apps/details?id=com.google.android.apps.cultural"	"com.google.android.apps.cultural"	"https://lh3.googleusercontent.com/VzjqfHuZcFItnNxy65DHB3E0jR6_WqdOkaEA8NP4gRqySAZjbNf2nE4qxNfoKJSkBNMa=w340"
"Google Authenticator"	"Enable 2-step verification to protect your account from hijacking."	"4.3"	"https://play.google.com/store/apps/details?id=com.google.android.apps.authenticator2"	"com.google.android.apps.authenticator2"	"https://lh3.googleusercontent.com/HPc5gptPzRw3wFhJE1ZCnTqlvEvuVFBAsV9etfouOhdRbkp-zNtYTzKUmUVPERSZ_lAL=w340"
"Google Calendar"	"Get the official Google Calendar app designed to make the most of every day"	"4.1"	"https://play.google.com/store/apps/details?id=com.google.android.calendar"	"com.google.android.calendar"	"https://lh3.ggpht.com/oGR9I1X9No3SfFEXrq655tETtVVzI3jIphhmEVPGPEVuM5gfwh8lOGWHQFf6gjSTvw=w340"
"Google Duo"	"Meet Google Duo — a simple one-to-one video calling app for everyone."	"4.4"	"https://play.google.com/store/apps/details?id=com.google.android.apps.tachyon"	"com.google.android.apps.tachyon"	"https://lh3.googleusercontent.com/8gaEOU2p30N4Up-KMUl4MQBtnn0F5DyH5bqKKr0QqptnQgPk4lxXaWLJhi8Dcu9i8qE=w340"
"Google Fit - Fitness Tracking"	"Step up your fitness. Stay aware and motivated with Google Fit."	"4"	"https://play.google.com/store/apps/details?id=com.google.android.apps.fitness"	"com.google.android.apps.fitness"	"https://lh4.ggpht.com/2PnWIlqNE5ZHwTpNdRBhViSOVBzRIeR4ezAisGyjrqWPiyRcSkm9RCpRBYg7lLvrMA=w340"
"Google Home"	"Setup and control your Chromecast, Chromecast Audio, and Google Home devices"	"4.2"	"https://play.google.com/store/apps/details?id=com.google.android.apps.chromecast.app"	"com.google.android.apps.chromecast.app"	"https://lh3.googleusercontent.com/EIX5pscg5l1Quvsz17LKk6W5oCSIxOfukBAUmbGR4Uvs1uKDYvbNr0XYE7hqpI3KHQ=w340"
"Google I/O 2016"	"Your co-pilot to navigate I/O, whether you’re attending in-person or remotely."	"4.3"	"https://play.google.com/store/apps/details?id=com.google.samples.apps.iosched"	"com.google.samples.apps.iosched"	"https://lh3.googleusercontent.com/EhF-MEIXADWULQRdAUGRUcYAmpp0odiBywxH6-mdxvwvxrwVVma1V57Vn28At70buRI=w340"
"Google News & Weather"	"Your customisable real-time news desk"	"4.1"	"https://play.google.com/store/apps/details?id=com.google.android.apps.genie.geniewidget"	"com.google.android.apps.genie.geniewidget"	"https://lh3.googleusercontent.com/fnqDFUD0zN_T1rR-4fyiCGsn6-MVE3azzA6fgMZN5xmsNIvpNQ7NbG0sXNGovftaQhb6=w340"
"Google Photos"	"A smarter gallery by Google, with free unlimited photo and video storage."	"4.4"	"https://play.google.com/store/apps/details?id=com.google.android.apps.photos"	"com.google.android.apps.photos"	"https://lh5.ggpht.com/tq3WqEUxtRyBn-d_0t3j6WKNHuJDrmLq-FE3GAYrsAMQFIaS7FIgRLfzzql2SvfvLqto=w340"
"Google Text-to-speech"	"Let your device do the talking"	"4.1"	"https://play.google.com/store/apps/details?id=com.google.android.tts"	"com.google.android.tts"	"https://lh3.ggpht.com/yrkQ_bDsgS0eFnJRsqxzPDdRNNHE9-dK1eZYNoN3ryDl9V9foQwZgZaTZwiYUfv2jnGI=w340"
"Google Wifi"	"The companion app for Google Wifi and OnHub."	"4.3"	"https://play.google.com/store/apps/details?id=com.google.android.apps.access.wifi.consumer"	"com.google.android.apps.access.wifi.consumer"	"https://lh3.googleusercontent.com/p5kStIWYqFXMhhVKe6TcEb4qvoXnnUlvhKWZjGNK9_U89d1bzkXHslkVrfcJrSMkeVs=w340"
"Inbox by Gmail"	"Already using Gmail? Try out our new email app."	"4.2"	"https://play.google.com/store/apps/details?id=com.google.android.apps.inbox"	"com.google.android.apps.inbox"	"https://lh6.ggpht.com/doFtR_H-dXJH0Mnm0zVchxrv0cWBy3O46_lWVYOnhY1M-cid2Tb7fX1FXPTyxx1BT24=w340"
"Jump Inspector (Unreleased)"	"View Jump content on your smartphone."	""	"https://play.google.com/store/apps/details?id=com.google.vr.jump.preview"	"com.google.vr.jump.preview"	"https://lh3.googleusercontent.com/oYw9i-FDI1Hc_NOCnq1c1VovnBb8qItMSDjUfi7m8GTlKRvFsc9Ez5-I2XEyiXWVZ4g=w340"
"Pixel Launcher"	"The home screen experience for the Pixel and Pixel XL phones by Google."	"4.3"	"https://play.google.com/store/apps/details?id=com.google.android.apps.nexuslauncher"	"com.google.android.apps.nexuslauncher"	"https://lh3.googleusercontent.com/O-7F6uiQOUbCPpfa80BldoKEiNDUekj5NBXYiJvx8fpZxT_Uuw0iAYHIKNa7yUXHbbs=w340"
"Spaces - Find & Do with Google"	"Small group sharing for everything in life"	"4.3"	"https://play.google.com/store/apps/details?id=com.google.android.apps.social.spaces"	"com.google.android.apps.social.spaces"	"https://lh3.googleusercontent.com/hj6Rnpd083L8jLv1UqnNfrl98KQ1b-XEkH9HetEmAWSV9Hx9rKLrbMyg92tlAtsZYA=w340"
"Wallpapers"	"Make the most of your display with beautiful wallpapers and advanced features."	"4.4"	"https://play.google.com/store/apps/details?id=com.google.android.apps.wallpaper"	"com.google.android.apps.wallpaper"	"https://lh3.googleusercontent.com/2aJfB6trLglywvIh6MSN58qh-r2b-_2GoXk4dWL5fIZmMAWdTN3f98Ugpi6U_glIm0w=w340"