"title"	"description"	"rating"	"url"	"package"	"icon"
"Android Device Manager"	"Find and secure lost Android devices"	"4.3"	"https://play.google.com/store/apps/details?id=com.google.android.apps.adm"	"com.google.android.apps.adm"	"https://lh6.ggpht.com/9OmDcNiV0d1Zk9wxuMv7qL4tR-CU2xk_klM0S_gJsC_nRXzLiXQz0RbYp-iCt6qSV9o=w340"
"Chrome Browser - Google"	"The speed and simplicity of Chrome, now on your Android phone and tablet."	"4.2"	"https://play.google.com/store/apps/details?id=com.android.chrome"	"com.android.chrome"	"https://lh3.googleusercontent.com/nYhPnY2I-e9rpqnid9u9aAODz4C04OycEGxqHG5vxFnA35OGmLMrrUmhM9eaHKJ7liB-=w340"
"Gboard - the Google Keyboard"	"Fast, smart, and accurate typing. With Search, GIFs, Emoji and more."	"4.1"	"https://play.google.com/store/apps/details?id=com.google.android.inputmethod.latin"	"com.google.android.inputmethod.latin"	"https://lh3.googleusercontent.com/X64En0aW6jkvDnd5kr16u-YuUsoJ1W2cBzJab3CQ5lObLeQ3T61DpB7AwIoZ7uqgCn4=w340"
"Gmail"	"Email from Google"	"4.3"	"https://play.google.com/store/apps/details?id=com.google.android.gm"	"com.google.android.gm"	"https://lh6.ggpht.com/8-N_qLXgV-eNDQINqTR-Pzu5Y8DuH0Xjz53zoWq_IcBNpcxDL_gK4uS_MvXH00yN6nd4=w340"
"Google"	"The smarter way to search on the go."	"4.4"	"https://play.google.com/store/apps/details?id=com.google.android.googlequicksearchbox"	"com.google.android.googlequicksearchbox"	"https://lh3.googleusercontent.com/DKoidc0T3T1KvYC2stChcX9zwmjKj1pgmg3hXzGBDQXM8RG_7JjgiuS0CLOh8DUa7as=w340"
"Google Allo"	"Say hello to Google Allo — a new, smart messaging app."	"4.2"	"https://play.google.com/store/apps/details?id=com.google.android.apps.fireball"	"com.google.android.apps.fireball"	"https://lh3.googleusercontent.com/S8DKhY39f1jpVy1-JV3qpI_ftuJwJnKjNbRhrVRGi-MQjr6i73JQI3-dmkQ93E0Jb4hT=w340"
"Google Analytics"	"The official Google Analytics mobile app: check key metrics & real-time data."	"4.3"	"https://play.google.com/store/apps/details?id=com.google.android.apps.giant"	"com.google.android.apps.giant"	"https://lh3.googleusercontent.com/jHRBv9E8ESGX2agXnyn9jFvBZRaeMahk3jpA5VyTugy2MIJVwvbuQzjAze8hIzIAmQ=w340"
"Google Apps Device Policy"	"Allows G Suite domain admin to set security policies for your Android device"	"3.5"	"https://play.google.com/store/apps/details?id=com.google.android.apps.enterprise.dmagent"	"com.google.android.apps.enterprise.dmagent"	"https://lh3.googleusercontent.com/d6Js0wL6riInBUWbxdN5rJjuu_6uygfs-06-8RVRRhDDKC9D4Hs8ZAevLsguTngc0Vkq=w340"
"Google Arts & Culture"	"Explore stories from around the world"	"4.6"	"https://play.google.com/store/apps/details?id=com.google.android.apps.cultural"	"com.google.android.apps.cultural"	"https://lh3.googleusercontent.com/VzjqfHuZcFItnNxy65DHB3E0jR6_WqdOkaEA8NP4gRqySAZjbNf2nE4qxNfoKJSkBNMa=w340"
"Google Authenticator"	"Enable 2-step verification to protect your account from hijacking."	"4.3"	"https://play.google.com/store/apps/details?id=com.google.android.apps.authenticator2"	"com.google.android.apps.authenticator2"	"https://lh3.googleusercontent.com/HPc5gptPzRw3wFhJE1ZCnTqlvEvuVFBAsV9etfouOhdRbkp-zNtYTzKUmUVPERSZ_lAL=w340"
"Google Calendar"	"Get the official Google Calendar app designed to make the most of every day"	"4.1"	"https://play.google.com/store/apps/details?id=com.google.android.calendar"	"com.google.android.calendar"	"https://lh3.ggpht.com/oGR9I1X9No3SfFEXrq655tETtVVzI3jIphhmEVPGPEVuM5gfwh8lOGWHQFf6gjSTvw=w340"
"Google Docs"	"Create and edit documents on the go."	"4.2"	"https://play.google.com/store/apps/details?id=com.google.android.apps.docs.editors.docs"	"com.google.android.apps.docs.editors.docs"	"https://lh4.ggpht.com/-wROmWQVYTcjs3G6H0lYkBK2nPGYsY75Ik2IXTmOO2Oo0SMgbDtnF0eqz-BRR1hRQg=w340"
"Google Drive"	"Free online storage from Google."	"4.3"	"https://play.google.com/store/apps/details?id=com.google.android.apps.docs"	"com.google.android.apps.docs"	"https://lh6.ggpht.com/k7Z4J1IIXXJnC2NRnFfJNlkn7kZge4Zx-Yv5uqYf4222tx74wXDzW24OvOxlcpw0KcQ=w340"
"Google Duo"	"Meet Google Duo — a simple one-to-one video calling app for everyone."	"4.4"	"https://play.google.com/store/apps/details?id=com.google.android.apps.tachyon"	"com.google.android.apps.tachyon"	"https://lh3.googleusercontent.com/8gaEOU2p30N4Up-KMUl4MQBtnn0F5DyH5bqKKr0QqptnQgPk4lxXaWLJhi8Dcu9i8qE=w340"
"Google Earth"	"Explore the world from the palm of your hand with Google Earth."	"4.3"	"https://play.google.com/store/apps/details?id=com.google.earth"	"com.google.earth"	"https://lh3.googleusercontent.com/RjxBl67S_11VT11lBRsPTJn6MTUfAFgRwy6WL0vrpM1iUlVRYUS_domm__TagUpq8XdR=w340"
"Google Fit - Fitness Tracking"	"Step up your fitness. Stay aware and motivated with Google Fit."	"4"	"https://play.google.com/store/apps/details?id=com.google.android.apps.fitness"	"com.google.android.apps.fitness"	"https://lh4.ggpht.com/2PnWIlqNE5ZHwTpNdRBhViSOVBzRIeR4ezAisGyjrqWPiyRcSkm9RCpRBYg7lLvrMA=w340"
"Google Gesture Search"	"Search your Android phone or tablet by drawing gestures."	"4.2"	"https://play.google.com/store/apps/details?id=com.google.android.apps.gesturesearch"	"com.google.android.apps.gesturesearch"	"https://lh6.ggpht.com/PuSAW1Bi9L9beKjGb8z8XMtyxQIPx2APCAtZBHqQqTxo342yzvwsF-KOf5PltDg_jBw=w340"
"Google Goggles"	"Search by taking a picture"	"4"	"https://play.google.com/store/apps/details?id=com.google.android.apps.unveil"	"com.google.android.apps.unveil"	"https:https://lh3.ggpht.com/zLz03mMY1VWt-TRfFB7Q-MijskexmW97pIv5TLEaA5urirJAJVcfBxpcTaRB1ZZpjw=w340"
"Google Handwriting Input"	"Google Handwriting Input lets you handwrite on your phone or tablet"	"4.3"	"https://play.google.com/store/apps/details?id=com.google.android.apps.handwriting.ime"	"com.google.android.apps.handwriting.ime"	"https://lh3.googleusercontent.com/u3HSCgMVYDFPCGhsq0BtLZL66vjnQloig1H3TMkwPCw1fST58RDKM91xnDZtM6RfNGE=w340"
"Google Home"	"Setup and control your Chromecast, Chromecast Audio, and Google Home devices"	"4.2"	"https://play.google.com/store/apps/details?id=com.google.android.apps.chromecast.app"	"com.google.android.apps.chromecast.app"	"https://lh3.googleusercontent.com/EIX5pscg5l1Quvsz17LKk6W5oCSIxOfukBAUmbGR4Uvs1uKDYvbNr0XYE7hqpI3KHQ=w340"
"Google Keep"	"Google Keep"	"4.4"	"https://play.google.com/store/apps/details?id=com.google.android.keep"	"com.google.android.keep"	"https://lh5.ggpht.com/DY9VpGNRSHoICKJVpIy9dMjgm7TOb3lTveLtsv4got8aqbLGpSS4w5xXiR7VBe-mr_M=w340"
"Google My Business"	"Join millions and manage your business on Google"	"4.3"	"https://play.google.com/store/apps/details?id=com.google.android.apps.vega"	"com.google.android.apps.vega"	"https://lh3.googleusercontent.com/EUQGH40jV55Dm2mcGzT9I2_vSfl_rJv88dfrR3JGJkxgQMe2j4bXoFd-tvuYLSGhFIQ=w340"
"Google My Maps"	"Create and edit custom maps on the go."	"3.9"	"https://play.google.com/store/apps/details?id=com.google.android.apps.m4b"	"com.google.android.apps.m4b"	"https://lh3.googleusercontent.com/8Wxdne_aPqu3IcG8KEEQNFscPt_Lq3ufW-t03Gc5JvYDCzeETnChlMLtzyPI5GoxWg=w340"
"Google News & Weather"	"Your customisable real-time news desk"	"4.1"	"https://play.google.com/store/apps/details?id=com.google.android.apps.genie.geniewidget"	"com.google.android.apps.genie.geniewidget"	"https://lh3.googleusercontent.com/fnqDFUD0zN_T1rR-4fyiCGsn6-MVE3azzA6fgMZN5xmsNIvpNQ7NbG0sXNGovftaQhb6=w340"
"Google Now Launcher"	"Bring the best of Google to your Home screen."	"4.3"	"https://play.google.com/store/apps/details?id=com.google.android.launcher"	"com.google.android.launcher"	"https://lh3.googleusercontent.com/7clxDYpmA-L1XXJP7wcRZMWV71MwDtZhubp1cF8Ss4cVjHFsqisncNP5vavacmMPhds=w340"
"Google Opinion Rewards"	"Answer surveys and earn Play credits!"	"4"	"https://play.google.com/store/apps/details?id=com.google.android.apps.paidtasks"	"com.google.android.apps.paidtasks"	"https://lh3.googleusercontent.com/IZWJNgJjVHD0ekADSo1Q43LbucxOALHxGk6kogKtrCFJl_oWwzjQFSf7ZJYJoKBDtDY=w340"
"Google PDF Viewer"	"PDF Viewing for Android"	"4.2"	"https://play.google.com/store/apps/details?id=com.google.android.apps.pdfviewer"	"com.google.android.apps.pdfviewer"	"https://lh4.ggpht.com/u9ofV9e2diX3giScuXT46B4A0vxFw8tj5NzHQJVAqAKwL5b_o8CHnO-qiZZIZYHlTg=w340"
"Google Photos"	"A smarter gallery by Google, with free unlimited photo and video storage."	"4.4"	"https://play.google.com/store/apps/details?id=com.google.android.apps.photos"	"com.google.android.apps.photos"	"https://lh5.ggpht.com/tq3WqEUxtRyBn-d_0t3j6WKNHuJDrmLq-FE3GAYrsAMQFIaS7FIgRLfzzql2SvfvLqto=w340"
"Google Play Books"	"Read your favorite books and authors on the go today."	"3.9"	"https://play.google.com/store/apps/details?id=com.google.android.apps.books"	"com.google.android.apps.books"	"https://lh3.googleusercontent.com/DglqS-eYHQYXnj8M8tmzh3JcKDXcidSo3IzgyCZzci8ZTV9Pmuk8vvIFh9XHOztC3Q=w340"
"Google Play Games"	"Discover great games, and earn achievements and high scores."	"4.1"	"https://play.google.com/store/apps/details?id=com.google.android.play.games"	"com.google.android.play.games"	"https://lh3.googleusercontent.com/UFJL7ni5i_F8V9Em0yymU4_x8uWhpKqDiA13Zo3ybgPJa48ujJjNfHLbvKr-3_MXzjLa=w340"
"Google Play Movies & TV"	"Watch movies and TV shows purchased on Google Play."	"3.6"	"https://play.google.com/store/apps/details?id=com.google.android.videos"	"com.google.android.videos"	"https://lh3.googleusercontent.com/EamensCSpActl8Y0uOxXOUSVHUBJOc4N3Lsp0OU0oMNBa9GU2JVmp1HWU9fyTWvMQQ=w340"
"Google Play Music"	"Discover and play millions of songs with the Google Play Music app"	"3.9"	"https://play.google.com/store/apps/details?id=com.google.android.music"	"com.google.android.music"	"https://lh3.googleusercontent.com/gdBHEk-u3YRDtuCU3iDTQ52nZd1t4GPmldYaT26Jh6EhXgp1mlhQiuLFl4eXDAXzDig5=w340"
"Google Play Newsstand"	"News & Magazines for you."	"3.9"	"https://play.google.com/store/apps/details?id=com.google.android.apps.magazines"	"com.google.android.apps.magazines"	"https://lh3.googleusercontent.com/76AS8vaLwxcJMD5Yd8xW5Dy8AW8lloWa2AkP2cgUdCY6rlzeqcjIvrcxOvq3nNwxmofL=w340"
"Google Sheets"	"Create and edit spreadsheets on the go."	"4.2"	"https://play.google.com/store/apps/details?id=com.google.android.apps.docs.editors.sheets"	"com.google.android.apps.docs.editors.sheets"	"https://lh3.ggpht.com/e3oZddUHSC6EcnxC80rl_6HbY94sM63dn6KrEXJ-C4GIUN-t1XM0uYA_WUwyhbIHmVMH=w340"
"Google Slides"	"Create and edit presentations on the go."	"4.1"	"https://play.google.com/store/apps/details?id=com.google.android.apps.docs.editors.slides"	"com.google.android.apps.docs.editors.slides"	"https://lh3.ggpht.com/9rwhkrvgiLhXVBeKtScn1jlenYk-4k3Wyqt1PsbUr9jhGew0Gt1w9xbwO4oePPd5yOM=w340"
"Google Street View"	"Browse the latest from Google, explore content from others, and create your own"	"4.2"	"https://play.google.com/store/apps/details?id=com.google.android.street"	"com.google.android.street"	"https://lh3.googleusercontent.com/50-i3khy6z44n6xQsiJKx6WqLWK4zeb6IyXJYW2qZJGBE_2QvWSI5an09m-H7WgMlRqQ=w340"
"Google TalkBack"	"TalkBack provides spoken feedback for eyes-free computing"	"4"	"https://play.google.com/store/apps/details?id=com.google.android.marvin.talkback"	"com.google.android.marvin.talkback"	"https://lh3.googleusercontent.com/r0JaW_cBZRoYqdStT3eP6tEI85Gu4ByXFfD1w9AZUcCcZe5aYE8TLIM36alYdiFs7w=w340"
"Google Text-to-speech"	"Let your device do the talking"	"4.1"	"https://play.google.com/store/apps/details?id=com.google.android.tts"	"com.google.android.tts"	"https://lh3.ggpht.com/yrkQ_bDsgS0eFnJRsqxzPDdRNNHE9-dK1eZYNoN3ryDl9V9foQwZgZaTZwiYUfv2jnGI=w340"
"Google Translate"	"The world is closer than ever with over 100 languages"	"4.4"	"https://play.google.com/store/apps/details?id=com.google.android.apps.translate"	"com.google.android.apps.translate"	"https://lh3.googleusercontent.com/ZrNeuKthBirZN7rrXPN1JmUbaG8ICy3kZSHt-WgSnREsJzo2txzCzjIoChlevMIQEA=w340"
"Google Trips - Travel Planner"	"Like a personalized tour guide in your pocket"	"4.2"	"https://play.google.com/store/apps/details?id=com.google.android.apps.travel.onthego"	"com.google.android.apps.travel.onthego"	"https://lh3.googleusercontent.com/5-zpxQHVo8YfuavTJkqL0U35VPqbt4vddb7OKedrSX8AlyDhBqx6NFFd7WwZDUUf3Ic=w340"
"Google Wifi"	"The companion app for Google Wifi and OnHub."	"4.3"	"https://play.google.com/store/apps/details?id=com.google.android.apps.access.wifi.consumer"	"com.google.android.apps.access.wifi.consumer"	"https://lh3.googleusercontent.com/p5kStIWYqFXMhhVKe6TcEb4qvoXnnUlvhKWZjGNK9_U89d1bzkXHslkVrfcJrSMkeVs=w340"
"Google+"	"Discover amazing things from passionate people"	"4.2"	"https://play.google.com/store/apps/details?id=com.google.android.apps.plus"	"com.google.android.apps.plus"	"https://lh3.googleusercontent.com/N-AY2XwXafWq4TQWfua6VyjPVQvTGRdz9CKOHaBl2nu2GVg7zxS886X5giZ9yY2qIjPh=w340"
"Maps - Navigation & Transit"	"Real-time GPS navigation, traffic, transit, and details about millions of places"	"4.3"	"https://play.google.com/store/apps/details?id=com.google.android.apps.maps"	"com.google.android.apps.maps"	"https://lh3.googleusercontent.com/MOf9Kxxkj7GvyZlTZOnUzuYv0JAweEhlxJX6gslQvbvlhLK5_bSTK6duxY2xfbBsj43H=w340"
"PhotoScan by Google Photos"	"Photos from the past, meet scanner from the future."	"4.2"	"https://play.google.com/store/apps/details?id=com.google.android.apps.photos.scanner"	"com.google.android.apps.photos.scanner"	"https://lh3.googleusercontent.com/J57mz_RTCqTNiqbntn7WpnhHeLD7eGc4twaFFhz1XLcSqlKErjwfyioCWWgi2hIRXbA=w340"
"Snapseed"	"Professional quality photo edits with the new Snapseed."	"4.4"	"https://play.google.com/store/apps/details?id=com.niksoftware.snapseed"	"com.niksoftware.snapseed"	"https://lh3.googleusercontent.com/mbnvSnzcapR5VR_38p5K6Fkm6tETL3xYt6V7-HRNL7p_FEHciJH5urUDwjzvZvdGpTw=w340"
"Sound Search for Google Play"	"Whats this song?"	"4"	"https://play.google.com/store/apps/details?id=com.google.android.ears"	"com.google.android.ears"	"https://lh3.ggpht.com/f4oX61ljZ6x8aYDELZOgxlvdUEu73-wSQ4fy5bx6fCRISnZP8T353wdaM43RO_DbGg=w340"
"Trusted Contacts"	"Stay connected with the people you care about, no matter what happens"	"3.9"	"https://play.google.com/store/apps/details?id=com.google.android.apps.emergencyassist"	"com.google.android.apps.emergencyassist"	"https://lh3.googleusercontent.com/fr6NcjRgxdOHcaMsU9ji-hy3y6bHEkDbggDjRa1BVlJTpfCIvv_ge0sdCCzb9lQZ1A=w340"
"Wallpapers"	"Make the most of your display with beautiful wallpapers and advanced features."	"4.4"	"https://play.google.com/store/apps/details?id=com.google.android.apps.wallpaper"	"com.google.android.apps.wallpaper"	"https://lh3.googleusercontent.com/2aJfB6trLglywvIh6MSN58qh-r2b-_2GoXk4dWL5fIZmMAWdTN3f98Ugpi6U_glIm0w=w340"
"YouTube"	"Enjoy your favorite videos and channels with the official YouTube app."	"4.2"	"https://play.google.com/store/apps/details?id=com.google.android.youtube"	"com.google.android.youtube"	"https://lh5.ggpht.com/jZ8XCjpCQWWZ5GLhbjRAufsw3JXePHUJVfEvMH3D055ghq0dyiSP3YxfSc_czPhtCLSO=w340"