"title"	"description"	"rating"	"url"	"package"	"icon"
"F8"	"The official app for the F8 Facebook Developers Conference."	"4"	"https://play.google.com/store/apps/details?id=com.facebook.f8"	"com.facebook.f8"	"https://lh3.googleusercontent.com/jtGhdN30aZMIRnzbM_6-guhtPlJ44CNEj_7KTX14kMYHMXgVd1X2jUcz_OyFReYo8lk=w340"
"Facebook"	"Keeping up with friends is faster than ever."	"4"	"https://play.google.com/store/apps/details?id=com.facebook.katana"	"com.facebook.katana"	"https://lh3.googleusercontent.com/ZZPdzvlpK9r_Df9C3M7j1rNRi7hhHRvPhlklJ3lfi5jk86Jd1s0Y5wcQ1QgbVaAP5Q=w340"
"Facebook Ads Manager"	"Manage and create Facebook Ads on the go."	"4.1"	"https://play.google.com/store/apps/details?id=com.facebook.adsmanager"	"com.facebook.adsmanager"	"https://lh3.googleusercontent.com/ODKlFYm7BaNiLMEEDO2b4DOCU-hmS1-Fg3_x_lLUaJZ0ssFsxciSoX1dYERaWDJuEs8=w340"
"Facebook Groups"	"A dedicated space for you and your groups on Facebook"	"4.1"	"https://play.google.com/store/apps/details?id=com.facebook.groups"	"com.facebook.groups"	"https://lh3.googleusercontent.com/GWfQhWY8bFwJipJZW5zdZ3EPG7oOP88diyyDzYVDJGZde7EcKsF9LbVXETD0RZtusM9R=w340"
"Facebook Lite"	"This version of Facebook uses less data and works in all network conditions."	"4.2"	"https://play.google.com/store/apps/details?id=com.facebook.lite"	"com.facebook.lite"	"https://lh3.googleusercontent.com/Alon4Gigwl2DqrT36O6JMn-M40tinuxFHWROtv0TP8ozX8Sr5MiBM1CuHX-veqFhnKvQ=w340"
"Facebook Mentions"	"Mentions is a better way to share and stay in touch with your fans on Facebook."	"3.8"	"https://play.google.com/store/apps/details?id=com.facebook.Mentions"	"com.facebook.Mentions"	"https://lh3.googleusercontent.com/FbRroNIeGF6oVHTVJK_H4OIihi6LaD6V9rTd1Gqrd2zJipYnB0KyqOpIfDjVqsNFrQ=w340"
"Facebook Pages Manager"	"Manage all the Pages you admin, wherever you are."	"4"	"https://play.google.com/store/apps/details?id=com.facebook.pages.app"	"com.facebook.pages.app"	"https://lh4.ggpht.com/vcyZimfIRlWrLarEpIj7MMSuqgwIkF4bx5nArKhFWsEqGclnPTAeLLK4cFiQ5QscRIEc=w340"
"Free Basics by Facebook"	"Free access to websites like Facebook, ESPN and more."	"4.1"	"https://play.google.com/store/apps/details?id=org.internet"	"org.internet"	"https://lh6.ggpht.com/-sgE0LYXrGJJkhdpQYzx47j7FqQfNFx5WD62OI0L7FrJQWC2saicEAl7UhnV1K27J4A=w340"
"Messenger"	"Messenger — a faster way to message."	"3.9"	"https://play.google.com/store/apps/details?id=com.facebook.orca"	"com.facebook.orca"	"https://lh5.ggpht.com/0VYAvZLR9YhosF-thqm8xl8EWsCfrEY_uk2og2f59K8IOx5TfPsXjFVwxaHVnUbuEjc=w340"
"Moments"	"Shared photo albums with friends and family."	"4.3"	"https://play.google.com/store/apps/details?id=com.facebook.moments"	"com.facebook.moments"	"https://lh3.googleusercontent.com/iJy1XmmGE3Gj31zEsU3D2KGBREKfsQeSzd24tnV4bg1ecQi3YaJK8Wo0C7NFqR9aOQ=w340"
"MSQRD"	"MSQRD – Live Filters for Video Selfies"	"4.3"	"https://play.google.com/store/apps/details?id=me.msqrd.android"	"me.msqrd.android"	"https://lh3.googleusercontent.com/kINcbzhokq4N41ywns_fj23XfJtuJEOdkk30l1wtnYwdEJYkheYQXd8kG4tGlqrCzH4=w340"
"Origami Live"	"Origami Live is the companion app for the free Origami Studio for Mac."	"4"	"https://play.google.com/store/apps/details?id=com.facebook.Origami"	"com.facebook.Origami"	"https://lh3.googleusercontent.com/MxCOXbhUrRjkbLaOa_gQy7sVB0O3-hDKFU1c6DHha9mzkTVi4pKDc34OTjHiqtnKn9wH=w340"
"Selfied for Messenger"	"Express yourself with Selfied for Messenger!"	"4.1"	"https://play.google.com/store/apps/details?id=com.facebook.selfied"	"com.facebook.selfied"	"https://lh3.googleusercontent.com/WnRe0tp1Htt9QAAvsy8669jqq4dbP_bPqNq8nIPQFkX21_xzyY7ZcbDVLls_RVgeG04=w340"
"Shout! for Messenger"	"Say it louder with Shout for Messenger!"	"3.9"	"https://play.google.com/store/apps/details?id=com.facebook.shout"	"com.facebook.shout"	"https://lh3.ggpht.com/QI32aNn563Bsmf--Sz-4XOBUybCaXKI53uFpQvFCgj1TULZkLIk_L6eZkc8wzHV5f88=w340"
"Sound Clips for Messenger"	"Send pre-recorded sounds and phrases to make your messages come to life."	"4.2"	"https://play.google.com/store/apps/details?id=com.facebook.soundclips"	"com.facebook.soundclips"	"https://lh3.googleusercontent.com/8zKhohogJYNXjO7R6_YJrtr1yOr8U53VCRtxY5ch7w921HuZ4bYfvk6ENXfzc0jawOa0=w340"
"Stickered for Messenger"	"It’s sticker time! Add cute characters, funny faces and more to make photos pop."	"4.1"	"https://play.google.com/store/apps/details?id=com.facebook.stickered"	"com.facebook.stickered"	"https://lh5.ggpht.com/ONvLDYUykR4hUUFS5lBQlwe-_hoHHI1ujdFO79tUW-krrDP1CFXE-B3_AuLTRMinXdE=w340"
"Strobe for Messenger"	"Its GIF time!"	"4.1"	"https://play.google.com/store/apps/details?id=com.facebook.strobe"	"com.facebook.strobe"	"https://lh3.ggpht.com/59LA3SA4N1ZemEaoplCkZbujmCNgdvJoia3SCRZBrYRW1Awve6x49f92CnjBP1MtNzbr=w340"
"Work Chat"	"Chat with your coworkers on the go."	"4.1"	"https://play.google.com/store/apps/details?id=com.facebook.workchat"	"com.facebook.workchat"	"https://lh3.googleusercontent.com/RZlp6sTZdLz0YXFuOuGBsrO5VI8z_QRcTH7wdqD4O7bm7mHKwJ8Srlnq0bpvQKmvJw=w340"
"Workplace by Facebook"	"Connect with your coworkers and turn ideas into action."	"4"	"https://play.google.com/store/apps/details?id=com.facebook.work"	"com.facebook.work"	"https://lh3.googleusercontent.com/D77zPWACCJG-AfXpzSsVJmM9Om2-Vj4ltstKINR22GFQBAv7zYhdzKQANWjLkrhvVw=w340"