"title"	"description"	"rating"	"url"	"package"	"icon"
"Audio Remote"	"Audio Remote App for Samsung GIGA & Soundbar via Bluetooth"	"4.1"	"https://play.google.com/store/apps/details?id=com.samsung.samsungband"	"com.samsung.samsungband"	"https://lh3.ggpht.com/coc7XZec77L4Ntz2qqdfklbXV0HdoPo2UVMC1LjtxS22BbTo-LjH8s9S65RRZkrsSw=w340"
"Charm by Samsung"	"Charm by Samsung app. manages basic settings of your Charm."	"3.6"	"https://play.google.com/store/apps/details?id=com.samsung.android.app.scharm"	"com.samsung.android.app.scharm"	"https://lh3.googleusercontent.com/SBthwLcj19kM6XrKr_ioTPrHVONOAfBIbdSKdJuStUhHtfGGcufkPsrI69VrVUrhILA=w340"
"Galaxy Note5 Experience"	"Download and learn the amazing features and benefits with hands-on experience."	"4.2"	"https://play.google.com/store/apps/details?id=com.samsung.note5exp_en"	"com.samsung.note5exp_en"	"https://lh3.googleusercontent.com/hLm1Aqy1jwRg22grFYkj8Z0xaL-bZIuf6aY8ChShSqdbKa5Ey8EUGs54lswAHnogKNGy=w340"
"Galaxy S6 edge+ Experience"	"Download and learn the amazing features and benefits with hands-on experience."	"4.1"	"https://play.google.com/store/apps/details?id=com.samsung.s6edgeplusexp"	"com.samsung.s6edgeplusexp"	"https://lh3.googleusercontent.com/AwUWU-oaT6ytOto_47XiX1HYu8F-FfMFurJHGly1j1FtCk-ohRRC_3IHPVtoEeeFhg=w340"
"JifiCal"	"A Natural Way to Create Calendar Events"	"4.2"	"https://play.google.com/store/apps/details?id=com.samsung.jifical"	"com.samsung.jifical"	"https://lh3.googleusercontent.com/G_bnMi3DCiI2-QBFbCtXihwnKjZVqpO4vJbXDAIZZIMWS3gW2W5QPh9e31uNpew-jKn3=w340"
"Lux Manager"	"Lux Manager is the new lighting control app from Samsung."	"4.2"	"https://play.google.com/store/apps/details?id=com.samsung.android.app.sbottle"	"com.samsung.android.app.sbottle"	"https://lh3.googleusercontent.com/o65OVdsaaLv_YWWmagmHFZDLCfyFrbULVTAVGhHu0WBdDxf_33UapcANW8-B5bsLVtla=w340"
"Power Sharing"	"Power Share, when used with Samsungs Power Sharing Cable EP-SG900"	"2.9"	"https://play.google.com/store/apps/details?id=com.samsung.android.app.powersharing"	"com.samsung.android.app.powersharing"	"https://lh3.ggpht.com/uLw9C_40UVjh0u6yBvGh0Dd-4AkdtLghgYCK1_zyTu0NioG3k-h-oEskdS8nfqt35g=w340"
"Remote Viewfinder"	"Use your Galaxy-S/S2,Galaxy-Tab as a remote controller for Samsung Smart Camera."	"3.7"	"https://play.google.com/store/apps/details?id=com.samsung.app"	"com.samsung.app"	"https:https://lh6.ggpht.com/sErfFCdphaNJofLc0KVzigl33np3U4U4wBxhBAqiviWOT0spz-QStBry8cnyOpVSDxsU=w340"
"Remote Viewfinder for GC"	"Use your Galaxy S/S2/S3, Note1/2, Tab as a remote controller for Galaxy Camera."	"3.4"	"https://play.google.com/store/apps/details?id=com.samsung.app.srvf"	"com.samsung.app.srvf"	"https://lh3.ggpht.com/LJ9ff4YwaGaQqyx5XeCDOoawVFjDaTmH6NvyPXk9AxuFMJMzL6PDpOzV8fma5bbsUQ=w340"
"S Health"	"Lifestyle companion to track your fitness, weight, diet, food & sleep."	"4.1"	"https://play.google.com/store/apps/details?id=com.sec.android.app.shealth"	"com.sec.android.app.shealth"	"https://lh3.googleusercontent.com/wae-NkjNDbw0VzUWkivkfnBGvK3i0OTPZzpciZbarW5LU8KWpvbqgJxYCkUjziuL0A=w340"
"S Note"	"Please use synchronization features for keeping your data safely."	"4.2"	"https://play.google.com/store/apps/details?id=com.samsung.android.snote"	"com.samsung.android.snote"	"https://lh3.googleusercontent.com/F_6IVSoAr53icqCyX2pfW-vqscgHpuf_y7TL13_SKZl86mO76ih4yw7vG5j0cRET2H4=w340"
"Samsung Accessory Service"	"This Service allows you to use a variety of functions by connecting accessories."	"3.2"	"https://play.google.com/store/apps/details?id=com.samsung.accessory"	"com.samsung.accessory"	"https://lh3.googleusercontent.com/FbLbP-YrRpkkK9r9mwfnE6HDpK5wjAN7vdPJvBzSPInSS4qKV4acPGxJ6m2ivDOWaQ=w340"
"Samsung Activity Tracker"	"It shows your activity and sleep records mesured by Samsung Activity Tracker."	"3.5"	"https://play.google.com/store/apps/details?id=com.samsung.android.app.atracker"	"com.samsung.android.app.atracker"	"https://lh4.ggpht.com/QXuRn7upTEUduQTyo7_IrsIltO5kMIskeRn3xGju9XYdb-uFXvsJjX2UWwFEbVyWjJA=w340"
"Samsung Camera Manager App"	"Control & Share photos with the latest Samsung Camera via wireless."	"3.7"	"https://play.google.com/store/apps/details?id=com.samsungimaging.samsungcameramanager"	"com.samsungimaging.samsungcameramanager"	"https://lh3.googleusercontent.com/HPCMWBabM0OMjsz7YNXsSFBzv9Pp4ZcIJF5CQAsiptr0uHl2Bm08ffQIOjkuQQ4X0Kn4=w340"
"Samsung Camera Manager Inst."	"Control & Share photos with the latest Samsung Cameravia wireless."	"3.2"	"https://play.google.com/store/apps/details?id=com.samsungimaging.samsungcameramanagerinst"	"com.samsungimaging.samsungcameramanagerinst"	"https://lh3.ggpht.com/abgYjHVqfnuuG8zQz99dWrYaX1Ua_AVZ-h8EO2H1AxrlMvdum5khWCj5bD2ssb8dtjXg=w340"
"Samsung Cares"	"This app only for Android Phone.Stay connected with the Samsung Cares app!"	"3.8"	"https://play.google.com/store/apps/details?id=com.samsung.cares.global"	"com.samsung.cares.global"	"https://lh6.ggpht.com/AAeyaYB3Jy6QkJxgcNjdxo1FlkfsvJAvXnjTmxt51zKvr0AMZKympOhLj9S4tmb3ob1r=w340"
"Samsung Cloud Print"	"Samsung Cloud Print is a free cloud service for Samsung Printers."	"3.8"	"https://play.google.com/store/apps/details?id=com.sec.cloudprint"	"com.sec.cloudprint"	"https://lh3.googleusercontent.com/pr9twv1R_qQGGxgZDtgXTKE5iQznhC5tsTud2xpvwfSx-6KxCVqRkVwsHqUANdLqc8s=w340"
"SAMSUNG Display Solutions"	"The Samsung Display Solutions mobile app."	"3.9"	"https://play.google.com/store/apps/details?id=com.sds.samsung.global"	"com.sds.samsung.global"	"https://lh6.ggpht.com/AKDomYNG82mF5BOYwzD2G0d9jGsABQLCTTVMg0P5orY7-cQHNQMdD_r1Ajcio86c8yUD=w340"
"Samsung Focus"	"Samsung Focus - Increase mobile productivity on the go with Samsung Focus!"	"3.9"	"https://play.google.com/store/apps/details?id=com.samsung.android.focus"	"com.samsung.android.focus"	"https://lh3.googleusercontent.com/2QJ3D6WKkT2zjEonnYY4_oyXxSklPuW9XD8NPe7LzJQrb_ZaMlNV6HspqTXsfP1vqQ=w340"
"Samsung Gear"	"The Samsung Gear app connects and manages Gear S3/S2/Fit2/IconX to phone."	"2.9"	"https://play.google.com/store/apps/details?id=com.samsung.android.app.watchmanager"	"com.samsung.android.app.watchmanager"	"https://lh3.googleusercontent.com/jRRjhxGjNnRYPYeIIDkeWLj4GTa0fLeaNOke6Yh_xndEb3EzpnC0oN1XHdaO5fLaKNsh=w340"
"Samsung Gear 360 Manager"	"Samsung Gear 360 Manager fully supports Gear 360 features"	"3.6"	"https://play.google.com/store/apps/details?id=com.samsung.android.samsunggear360manager"	"com.samsung.android.samsunggear360manager"	"https://lh3.googleusercontent.com/jlDSMfFBXLk1EEXgpgA55j7Q4i98VFFLyZpkvUITZfZKEmGRcZlpFGRF7seBuPNQvuM=w340"
"Samsung Home Monitor"	"Samsung Home Monitor"	"3.8"	"https://play.google.com/store/apps/details?id=com.samsungimaging.samsunghomemonitor"	"com.samsungimaging.samsunghomemonitor"	"https://lh3.ggpht.com/NApc2GVLXFEP2WnLy9iHMCJ65ygDtnnjMqiw29VMcgJH89_YvX1Lgq478_ZOyOrrOSA=w340"
"Samsung Home Monitor +"	"Samsung Home Monitor + is an app works in conjunction with the Home Monitor +"	"3.3"	"https://play.google.com/store/apps/details?id=com.samsungimaging.homemonitorplus"	"com.samsungimaging.homemonitorplus"	"https://lh3.ggpht.com/YooJ2kdd4xpm8pSTrAXX0gOyMBo_ODxJdA-a5wXNcbryE20tIIUUjlyDFvogTiRtCYU=w340"
"Samsung Internet for Android"	"Simple, Fast, and Reliable web browser for your phone and tablet."	"4.1"	"https://play.google.com/store/apps/details?id=com.sec.android.app.sbrowser"	"com.sec.android.app.sbrowser"	"https://lh3.googleusercontent.com/TAcIrBPu2YVSqrG3KclrwU7RxYmy7ab-9XTkC6ALmR9BNRQdKieV-5-VYqQK8A3c1oc=w340"
"Samsung LED Lamp"	"The Samsung LED Lamp app showcases the global lineup professional lamps."	"4"	"https://play.google.com/store/apps/details?id=com.samsungled.catalog"	"com.samsungled.catalog"	"https://lh3.ggpht.com/tYcpGZhJ3LbkoejMOLtluwhH8YgV9bzrJCWCBwTFuiY2e95gqHTY_V-AOz6DvevDIy00=w340"
"Samsung Level"	"Support Samsung Level U/U Pro/U Pro ANC, Box/Mini/Pro, On/On Pro, Over, Active"	"3.8"	"https://play.google.com/store/apps/details?id=com.sec.samsungsoundphone"	"com.sec.samsungsoundphone"	"https://lh3.googleusercontent.com/GFZSeWeTG1sTGDphAorldnM8sQGccTHgdagv-Xsh0cDHP2gbRvRTUmyc9qKMscrnIbk=w340"
"Samsung Level for Tablet"	"Support Samsung Level Over, Samsung Level Box"	"3.8"	"https://play.google.com/store/apps/details?id=com.sec.samsungsound"	"com.sec.samsungsound"	"https://lh4.ggpht.com/5U3El7QIpwfXDvTU4hE-yw7ywFlwE--09uIY0AWz7bcFfJcOKRv7GTusFAscuadHI0w=w340"
"Samsung Link (Terminated)"	"Bring your content anywhere"	"4"	"https://play.google.com/store/apps/details?id=com.sec.pcw"	"com.sec.pcw"	"https://lh6.ggpht.com/w78tfgGGrh_m66KDopz1rq7Qr4kL4eIi5OBhXZze0DFenEKZUnI6Z4adcbKnE8684dE=w340"
"Samsung Members"	"It is designed to help you solve problems you come across while using Galaxy."	"3.2"	"https://play.google.com/store/apps/details?id=com.samsung.android.voc"	"com.samsung.android.voc"	"https://lh3.googleusercontent.com/0JWHcFbKMM1LUeZAg6NgVwjkitZvLVSU0UNk_kqfs82lT3hTKyJTJpmfE_egO940SPM=w340"
"Samsung Mobile Print"	"With Samsung Mobile Print, you can directly print to Samsung Printers."	"4.1"	"https://play.google.com/store/apps/details?id=com.sec.print.mobileprint"	"com.sec.print.mobileprint"	"https://lh3.googleusercontent.com/o7XCAUfiRLeJFS6ChT9IXjss6_zpmcve_E1thrlkB7Cy5t4gYDnyt5AtLri70kJUR4i2=w340"
"Samsung Mobile Print Manager"	"A fast and easy tool for printer configuration and management."	"4"	"https://play.google.com/store/apps/details?id=com.sec.print.mes"	"com.sec.print.mes"	"https://lh3.googleusercontent.com/StIqKLH4u_fnW4AORONGSWGuzimhHXfnE4DZavonb7cwDvorbBIbc6n-wlA6UTuzQUE=w340"
"Samsung MobileLink"	"Use your Galaxy-S/S2,Galaxy-Tab for Mobile Link in Samsung Smart Camera."	"3.9"	"https://play.google.com/store/apps/details?id=com.samsungimaging.filesharing"	"com.samsungimaging.filesharing"	"https:https://lh6.ggpht.com/zduGuoiYDz8eMIBcZfHtZ2DWZ0wMqzQ2Bic7uYqg4AnZOCwftl8zO95T5kKiZGaXUgE=w340"
"Samsung Music"	"- Music player for Samsung Galaxy series- Supports for Android 5.0, 6.0 and 7.0"	"4.1"	"https://play.google.com/store/apps/details?id=com.sec.android.app.music"	"com.sec.android.app.music"	"https://lh3.googleusercontent.com/Yr_A1ILRymvwwpKVBNFaf3eyXpnf18xjY_iMHKvcAg-4YSxpAcUoH92ETEryeKXis9M=w340"
"Samsung My Knox"	"Take control of your device for work and play. Now even faster setup!"	"4.2"	"https://play.google.com/store/apps/details?id=com.sec.enterprise.knox.express"	"com.sec.enterprise.knox.express"	"https://lh3.googleusercontent.com/p_lXzRWzQ92iEkkgviymXIirutjRUDiJ4yHNrn2WbWK4rOWBgLvjAjl7BAKIHmUPIvf1=w340"
"Samsung NFC Connection"	""	"4"	"https://play.google.com/store/apps/details?id=com.samsung1"	"com.samsung1"	"https://lh6.ggpht.com/MUPY0tL7wc0zNEahHrqCzVY4V-oS6yrlFD5FNdMTmNjdBmea3n5Y7HU581mxz4WnUg=w340"
"Samsung Notes"	"Samsung Notes allows you to memo nicely and draw fabulous paintings with a S Pen"	"3.5"	"https://play.google.com/store/apps/details?id=com.samsung.android.app.notes"	"com.samsung.android.app.notes"	"https://lh3.googleusercontent.com/yXRDXDIGpVuUZOZCN2S9otVhCIaLYJc8s4p8QslBtHE5yB8vU66aJfLKyizie2R-cw=w340"
"Samsung OCR"	"Support OCR(optical chararcter regcognition) for Dynamic Workflow Mobile."	"3.3"	"https://play.google.com/store/apps/details?id=com.samsung.ocr.android"	"com.samsung.ocr.android"	"https://lh3.googleusercontent.com/oQ9vKPlDlrDzNcVwQ1iF8KmVQaYMahyfOUdXHP0vYZOobhTA9RJsMN_-KNAXvTkw2Po=w340"
"Samsung PC Help"	"Samsung PC Help provides tutorials to help guide you through features of PC."	"4.5"	"https://play.google.com/store/apps/details?id=com.samsung.ativhelp"	"com.samsung.ativhelp"	"https://lh3.googleusercontent.com/r2W2xa0t6QJLdss9FpFdSl3nstW8Z4DsnR2TGb8dVQXuy5bIt9sii9czFyqlzyeVtwk=w340"
"Samsung Print Service Plugin"	"Print from your favorite apps to any printer brand."	"4.1"	"https://play.google.com/store/apps/details?id=com.sec.app.samsungprintservice"	"com.sec.app.samsungprintservice"	"https://lh3.googleusercontent.com/J9kGCwDdENIlcYFsz4je5LLggvKtLl5PT32KWMrUmh-I3zjQeVclLcId4CqoDR-uUJs=w340"
"Samsung Push Service"	"The Samsung push service provides the notification service on Samsung devices."	"4.1"	"https://play.google.com/store/apps/details?id=com.sec.spp.push"	"com.sec.spp.push"	"https://lh3.ggpht.com/v2duu6chV296fi8GXar_8fLH-l2RFk3p65j7xGeZNw3FF52LDIvoXBumEm8bTMkD9Q=w340"
"Samsung Security Policy Update"	"Security Policy Update Tool updates the security policy files of SE for Android."	"4.1"	"https://play.google.com/store/apps/details?id=com.policydm"	"com.policydm"	"https://lh5.ggpht.com/qmKKojzGsv7QCdLm3QM24f3_XExjfp_P0-0ZZ1a3tZPvrFbGTCCctGX8JSmgYu8bHxPb=w340"
"Samsung SMART CAMERA App"	"SAMSUNG SMART CAMERA APP"	"4.1"	"https://play.google.com/store/apps/details?id=com.samsungimaging.connectionmanager"	"com.samsungimaging.connectionmanager"	"https://lh4.ggpht.com/O7_vVdHIeQhqGn_7svTW5g5IwQN2HBsMuPZkXif7FsBv_6653Zod5AYz0iH7GjZDAI8k=w340"
"Samsung SMART CAMERA NX"	"Samsung SMART CAMERA NX"	"4.1"	"https://play.google.com/store/apps/details?id=com.samsung.app.nxsystem_gtab_en2"	"com.samsung.app.nxsystem_gtab_en2"	"https://lh5.ggpht.com/4WPLLFgbHEM9VOkQdY3BVludCi_kXLx7kFI3Nb33ldIsIpzDcy-I0BByjSVcrKs6Smk=w340"
"Samsung SMART CAMERA NX (KOR)"	"Samsung SMART CAMERA NX (Korean)"	"4.1"	"https://play.google.com/store/apps/details?id=com.samsung.app.nxsystem_gtab_kr"	"com.samsung.app.nxsystem_gtab_kr"	"https://lh5.ggpht.com/7gymwDVvy9Gipi8W1oAAD15Uz_ehgbd2dck2zQZ94eHQLDtj-3iuqWnB4dxUwS6o-YY=w340"
"Samsung Smart Home"	"Use your Samsung appliances more conveniently through Smart Home Application."	"2.9"	"https://play.google.com/store/apps/details?id=com.samsung.smarthome"	"com.samsung.smarthome"	"https://lh3.googleusercontent.com/7adNiLPPyuob9RSuT4fdLGxP6zkI8GF4UCJ8VVKL9LalnlSnb8HyyMs3Uvs2BUgLJt4n=w340"
"Samsung Smart Switch Mobile"	"Galaxy S7/S7 edge : Smart Switch(Content transfer Tool) is preloaded."	"4.3"	"https://play.google.com/store/apps/details?id=com.sec.android.easyMover"	"com.sec.android.easyMover"	"https://lh3.googleusercontent.com/_5uL1PmhC5anZnFek71TfSz60m3E-r7MBFzIDKbpQcn3IoW-bREVmnbEIYfYFjaBBJE=w340"
"Samsung Smart View"	"Extend your mobile content onto your Samsung Smart TV"	"3.5"	"https://play.google.com/store/apps/details?id=com.samsung.smartviewad"	"com.samsung.smartviewad"	"https://lh3.googleusercontent.com/2qA0t8UbAb0vfyoxa24W-T_xsDdNyH17viowjcr1ipwhgdDQO2tLj8t30tndg-0a1cY=w340"
"SAMSUNG Smart Washer/Dryer"	"Samsung Smart Washer/Dryer"	"3.6"	"https://play.google.com/store/apps/details?id=com.samsung.washer"	"com.samsung.washer"	"https://lh6.ggpht.com/7_Cn1yJn_O3XBOMTVgo5p_v_A6khvmRQb5-makTSAd4OosNThCPMGsygeI0Sj9prjw=w340"
"Samsung Tectiles"	"Using TecTiles app, you can easily read and write tasks from TecTiles tags."	"3.7"	"https://play.google.com/store/apps/details?id=com.samsung.tectiles2"	"com.samsung.tectiles2"	"https:https://lh5.ggpht.com/yRIYaZiiAmLP8wFMZwKPO6OLlo66wris0VzsfxXZBPk4xgOPaGvFH49KUYPbLswf5w=w340"
"SAMSUNG TV & Remote (IR)"	"Is your current TV leaving you feeling flat?See more. Feel more."	"3"	"https://play.google.com/store/apps/details?id=com.samsung.samsungcatalog"	"com.samsung.samsungcatalog"	"https://lh3.googleusercontent.com/wf-1YcgP1DbVL6JWw3KNUdZ_FLMGHB41LmSk6y0Dp8SMCpCbvwp6RZGJGxPJ6TFDWfo=w340"
"Samsung Video Library"	"Provides Search, Editor and Private mode!- Supported OS : Android 6.0 / 7.0"	"4.4"	"https://play.google.com/store/apps/details?id=com.samsung.android.videolist"	"com.samsung.android.videolist"	"https://lh3.googleusercontent.com/11vGDoiVTnq8GbB14KRBZCTgQvcLQ06DEQwvA7WyyZsUAwrw0AgfyyjgGo4Uc3vdlw=w340"
"Samsung Voice Recorder"	"- Voice recorder for Samsung Galaxy series"	"4.3"	"https://play.google.com/store/apps/details?id=com.sec.android.app.voicenote"	"com.sec.android.app.voicenote"	"https://lh3.googleusercontent.com/WhWdH_5W0C1R7KIvbLIwlWHwBV7uceL0JDj49liEr0H4i67wznVw78J6ZEDAFLXOO7c=w340"
"Samsung Wireless Audio  Dock"	""	"4"	"https://play.google.com/store/apps/details?id=com.samsung.dockingaudio_tab"	"com.samsung.dockingaudio_tab"	"https:https://lh3.ggpht.com/N0LKXzefXl8dGde8NiwzJ9LGri2_FpH6t1yRJ3G2wNcb5ZO7Sb01sIU-yM40atUwlbc=w340"
"ScreenMirroring Patch"	""	"3"	"https://play.google.com/store/apps/details?id=com.sec.screenmirroringpatch"	"com.sec.screenmirroringpatch"	"https://lh4.ggpht.com/lxTjXV3UGQTHone03UvUQ4fUQBsa_x1iHXfa1X4DWQUBDv1iNUa007TfZ_Ju_lTHYw=w340"
"SideSync"	"Experience Samsung SideSync right now."	"4.1"	"https://play.google.com/store/apps/details?id=com.sec.android.sidesync30"	"com.sec.android.sidesync30"	"https://lh3.googleusercontent.com/S80oWUC9E8A55s6y7rektafva3jucmz-RjjWMKPJgJ5XgCiABAPjV8dC4SNpGKLLIw=w340"
"Smart Tutor for SAMSUNG Mobile"	"Smart Tutor for SAMSUNG Mobile."	"3.8"	"https://play.google.com/store/apps/details?id=com.rsupport.rs.activity.rsupport.aas2"	"com.rsupport.rs.activity.rsupport.aas2"	"https://lh5.ggpht.com/LUSMyEcleKJLS4ITriskOeb3zKE0JifPR8WeDEFAfcELVRWJIXRvk0pPV26FeGtbBGs=w340"
"Soundcamp"	"A powerful music production tool for users who want to create music anywhere."	"4.2"	"https://play.google.com/store/apps/details?id=com.sec.musicstudio"	"com.sec.musicstudio"	"https://lh3.googleusercontent.com/MT3aFW4xLFzEWUq7d_-jcOGCJlzQ6oDesq8BwEuUxHsweIJidZM57MhkbhDOxrBuo30=w340"
"Spen SDK"	"Library for the Pen package, which is a part of the Samsung Mobile SDK"	"3.7"	"https://play.google.com/store/apps/details?id=com.samsung.android.sdk.spen30"	"com.samsung.android.sdk.spen30"	"https://lh3.googleusercontent.com/UsNAV9HiNgzqjYHnZaGnqjecvop7WsUf_c-YcusNd9tZznNouPsiGvqVOCeZ2s4xcA=w340"
"Write on PDF"	"Open a PDF file and write on it."	"4.2"	"https://play.google.com/store/apps/details?id=com.samsung.android.spdfnote"	"com.samsung.android.spdfnote"	"https://lh3.googleusercontent.com/kmLmrxiBjqTFQn-1QQzZQpVjb5Y0r8LuBH0IIDcgAAQ7_cOujT_fkM5czkwilzVJpxB2=w340"