title	description	rating	url	package	icon
Uber	Ride with Uber for fast, reliable rides that are affordable and available 24/7.	4.3	https://play.google.com/store/apps/details?id=com.ubercab	com.ubercab	https://lh3.googleusercontent.com/grsL-sVOds-X3WXwQKYplloxD2wkWLUmpXFYTX2dmbAltKTRskhDX4rsdLwavMv5LHQ=w340
Uber Driver	Enjoy the flexibility of driving and making money whenever you want.	4.4	https://play.google.com/store/apps/details?id=com.ubercab.driver	com.ubercab.driver	https://lh3.googleusercontent.com/RnRTWHIjUhy3GO-TvMzw-IWCrLHTjizyJyEdXw1cTerxrmYF0bFmZYVzzwtWzgVMYno=w340
UberEATS: Faster Delivery	UberEATS: Food you want from restaurants you love, delivered faster.	4.2	https://play.google.com/store/apps/details?id=com.ubercab.eats	com.ubercab.eats	https://lh3.googleusercontent.com/-M679h76FAjLJI6sv9VYUGKLXK7jdG1_95XRV8DJslC1e3_2QAesO7H7jDtDYEObTc3w=w340